g Apple
v 0.5557695 0.7449046 0.1975324
v 0.4416557 0.7050074 0.3169304
v 0.4416557 0.7449045 0.2281091
v 0.6001801 0.7050076 0.274454
v 0.4416558 0.6266428 0.3837893
v 0.7162282 0.7050077 0.158406
v 0.6393066 0.7449046 0.1139953
v 0.6698834 0.7449046 -0.0001185762
v 0.6336097 0.6266429 0.3323555
v 0.4416558 0.5149207 0.4269421
v 0.7587048 0.7050077 -0.0001185385
v 0.7741298 0.6266429 0.1918355
v 0.6551862 0.5149208 0.3697268
v 0.6624998 0.394149 0.3823944
v 0.4416559 0.3941489 0.4415694
v 0.441656 0.273377 0.4269421
v 0.7162283 0.7050076 -0.1586431
v 0.6393067 0.7449046 -0.1142325
v 0.5557696 0.7449045 -0.1977696
v 0.8255638 0.6266429 -0.0001185223
v 0.8115013 0.5149209 0.2134118
v 0.6001803 0.7050074 -0.2746911
v 0.4416558 0.7449044 -0.2283464
v 0.7741299 0.6266429 -0.1920725
v 0.8687166 0.5149209 -0.0001184759
v 0.4416558 0.7050073 -0.3171676
v 0.3275419 0.7449043 -0.1977697
v 0.6336099 0.6266427 -0.3325927
v 0.8241688 0.3941491 0.2207255
v 0.8115014 0.5149208 -0.2136488
v 0.8115014 0.2733773 0.2134119
v 0.8833439 0.3941491 -0.0001184287
v 0.8241689 0.394149 -0.2209624
v 0.6551863 0.5149206 -0.369964
v 0.6551864 0.2733772 0.3697269
v 0.4416561 0.1610223 0.3845071
v 0.6339689 0.1610225 0.3329771
v 0.4416562 0.06393689 0.3154058
v 0.8687168 0.2733773 -0.0001184053
v 0.7747516 0.1610225 0.1921944
v 0.5994183 0.06393699 0.2731337
v 0.4416562 0.006466788 0.2259841
v 0.5547075 0.00646686 0.1956922
v 0.6374668 0.006466907 0.1129329
v 0.7149083 0.06393705 0.1576438
v 0.7571806 0.06393705 -0.0001183651
v 0.6677588 0.006466917 -0.0001183628
v 0.8262817 0.1610225 -0.0001183825
v 0.7149084 0.06393698 -0.1578805
v 0.6374668 0.006466841 -0.1131696
v 0.7747518 0.1610224 -0.1924312
v 0.5994185 0.06393685 -0.2733705
v 0.5547076 0.006466757 -0.1959289
v 0.4416564 0.006466657 -0.2262209
v 0.8115016 0.2733772 -0.2136488
v 0.6339691 0.1610223 -0.3332139
v 0.6625 0.3941488 -0.3826315
v 0.6551865 0.273377 -0.3699639
v 0.4416563 0.1610221 -0.384744
v 0.4416563 0.0639367 -0.3156428
v 0.441656 0.5149204 -0.4271794
v 0.4416561 0.3941486 -0.4418064
v 0.2838942 0.0639366 -0.2733705
v 0.3286051 0.006466586 -0.195929
v 0.2493435 0.161022 -0.333214
v 0.1684042 0.06393653 -0.1578806
v 0.2458458 0.006466539 -0.1131697
v 0.4416562 0.2733768 -0.4271793
v 0.2281258 0.2733766 -0.369964
v 0.2208121 0.3941484 -0.3826315
v 0.4416559 0.6266425 -0.3840266
v 0.2281256 0.5149202 -0.3699641
v 0.07181051 0.5149202 -0.2136489
v 0.2497019 0.6266424 -0.3325927
v 0.059143 0.3941483 -0.2209625
v 0.07181069 0.2733766 -0.2136489
v 0.2831313 0.7050072 -0.2746912
v 0.1091817 0.6266423 -0.1920726
v 0.1670832 0.7050071 -0.1586432
v 0.2440047 0.7449043 -0.1142325
v 0.2134279 0.7449043 -0.000118671
v 0.1246066 0.7050071 -0.0001186716
v 0.1085607 0.1610219 -0.1924313
v -3.187234E-05 0.3941484 -0.000118608
v 0.0577478 0.6266423 -0.0001186598
v 0.1670832 0.7050072 0.1584058
v 0.2440047 0.7449044 0.1139952
v 0.3275418 0.7449044 0.1975323
v 0.01459545 0.2733766 -0.0001185665
v 0.05703054 0.1610219 -0.0001185274
v 0.01459524 0.5149202 -0.0001186328
v 0.1091817 0.6266424 0.1918353
v 0.2831312 0.7050074 0.2744538
v 0.4416557 0.7449045 0.2281091
v 0.4416557 0.7050074 0.3169304
v 0.2497018 0.6266426 0.3323554
v 0.4416558 0.6266428 0.3837893
v 0.07181045 0.5149203 0.2134117
v 0.2281255 0.5149204 0.3697267
v 0.4416558 0.5149207 0.4269421
v 0.05914303 0.3941485 0.2207253
v 0.220812 0.3941486 0.3823943
v 0.4416559 0.3941489 0.4415694
v 0.07181063 0.2733767 0.2134117
v 0.2281257 0.2733768 0.3697268
v 0.441656 0.273377 0.4269421
v 0.1085606 0.161022 0.1921942
v 0.2493433 0.1610222 0.3329769
v 0.4416561 0.1610223 0.3845071
v 0.126132 0.06393654 -0.0001184819
v 0.2155537 0.006466552 -0.0001184598
v 0.2458457 0.006466604 0.1129328
v 0.1684042 0.06393663 0.1576437
v 0.328605 0.006466689 0.1956921
v 0.283894 0.06393678 0.2731336
v 0.4416562 0.06393689 0.3154058
v 0.4416562 0.006466788 0.2259841
v 0.4416558 0.8472219 0.03720441
v 0.4560718 0.7573522 0.01693056
v 0.4589947 0.8474827 0.04738124
v 0.4416559 0.7567965 0.008788309
v 0.4480357 0.6593273 -0.00378198
v 0.441656 0.6593273 -0.007465329
v 0.4589947 0.8474827 0.04738124
v 0.4575156 0.7583398 0.03354581
v 0.4588175 0.8482633 0.06759297
v 0.4560718 0.7573522 0.01693056
v 0.4480376 0.6594366 0.003605038
v 0.4480357 0.6593273 -0.00378198
v 0.4588175 0.8482633 0.06759297
v 0.4418018 0.75802 0.04444252
v 0.4416558 0.8482633 0.07750127
v 0.4575156 0.7583398 0.03354581
v 0.441656 0.6595257 0.007306871
v 0.4480376 0.6594366 0.003605038
v 0.4418018 0.75802 0.04444252
v 0.4244941 0.8482633 0.06759297
v 0.4416558 0.8482633 0.07750127
v 0.4257961 0.7583398 0.03354581
v 0.441656 0.6595257 0.007306871
v 0.4352744 0.6594366 0.003605036
v 0.42724 0.7573522 0.01693055
v 0.4416558 0.8472219 0.03720441
v 0.4243169 0.8474827 0.04738124
v 0.4416559 0.7567965 0.008788309
v 0.4352762 0.6593273 -0.003781982
v 0.441656 0.6593273 -0.007465329
v 0.4257961 0.7583398 0.03354581
v 0.4243169 0.8474827 0.04738124
v 0.4244941 0.8482633 0.06759297
v 0.42724 0.7573522 0.01693055
v 0.4352744 0.6594366 0.003605036
v 0.4352762 0.6593273 -0.003781982
v 0.3774176 0.4449672 0.1014546
v 0.4038993 0.4398797 0.1320036
v 0.44166 0.4632171 0.1014546
v 0.4794206 0.4398798 0.1320036
v 0.5059022 0.4449672 0.1014546
v 0.44166 0.4052633 0.1534277
v 0.5059022 0.4449672 0.1014546
v 0.4794206 0.4398798 0.1320036
v 0.5405187 0.4021191 0.1203349
v 0.502758 0.3787817 0.150884
v 0.5456062 0.341021 0.1335757
v 0.44166 0.4052633 0.1534277
v 0.5059022 0.4449672 0.1014546
v 0.5405187 0.4021191 0.1203349
v 0.5405187 0.4021191 0.08257424
v 0.5638561 0.341021 0.1014546
v 0.5456062 0.341021 0.06933343
v 0.5456062 0.341021 0.1335757
v 0.5059022 0.4449672 0.1014546
v 0.5405187 0.4021191 0.08257424
v 0.4794206 0.4398797 0.07090555
v 0.502758 0.3787817 0.05202521
v 0.44166 0.4052633 0.04948147
v 0.5456062 0.341021 0.06933343
v 0.5059022 0.4449672 0.1014546
v 0.4794206 0.4398797 0.07090555
v 0.44166 0.4632171 0.1014546
v 0.4038993 0.4398797 0.07090555
v 0.3774176 0.4449672 0.1014546
v 0.44166 0.4052633 0.04948147
v 0.44166 0.4052633 0.04948147
v 0.3805619 0.3787816 0.05202521
v 0.4038993 0.4398797 0.07090555
v 0.3428012 0.402119 0.08257424
v 0.3774176 0.4449672 0.1014546
v 0.3377137 0.3410209 0.06933343
v 0.3377137 0.3410209 0.06933343
v 0.3194638 0.3410209 0.1014546
v 0.3428012 0.402119 0.08257424
v 0.3428012 0.402119 0.1203349
v 0.3774176 0.4449672 0.1014546
v 0.3377137 0.341021 0.1335757
v 0.3774176 0.4449672 0.1014546
v 0.3428012 0.402119 0.1203349
v 0.4038993 0.4398797 0.1320036
v 0.3805619 0.3787816 0.150884
v 0.44166 0.4052633 0.1534277
v 0.3377137 0.341021 0.1335757
v 0.5059023 0.2370748 0.1014546
v 0.4794207 0.2421623 0.1320036
v 0.44166 0.2188248 0.1014546
v 0.4038993 0.2421622 0.1320036
v 0.3774177 0.2370747 0.1014546
v 0.44166 0.2767787 0.1534277
v 0.5456062 0.341021 0.1335757
v 0.502758 0.3032603 0.150884
v 0.5405187 0.279923 0.1203349
v 0.4794207 0.2421623 0.1320036
v 0.5059023 0.2370748 0.1014546
v 0.44166 0.2767787 0.1534277
v 0.5456062 0.341021 0.1335757
v 0.5405187 0.279923 0.1203349
v 0.5638561 0.341021 0.1014546
v 0.5405187 0.279923 0.08257425
v 0.5456062 0.341021 0.06933343
v 0.5059023 0.2370748 0.1014546
v 0.5456062 0.341021 0.06933343
v 0.5405187 0.279923 0.08257425
v 0.502758 0.3032603 0.05202522
v 0.4794207 0.2421623 0.07090556
v 0.44166 0.2767787 0.04948147
v 0.5059023 0.2370748 0.1014546
v 0.44166 0.2767787 0.04948147
v 0.4794207 0.2421623 0.07090556
v 0.4038993 0.2421622 0.07090556
v 0.44166 0.2188248 0.1014546
v 0.3774177 0.2370747 0.1014546
v 0.5059023 0.2370748 0.1014546
v 0.44166 0.2767787 0.04948147
v 0.4038993 0.2421622 0.07090556
v 0.3805619 0.3032603 0.05202522
v 0.3428013 0.2799229 0.08257425
v 0.3377137 0.3410209 0.06933343
v 0.3774177 0.2370747 0.1014546
v 0.3377137 0.3410209 0.06933343
v 0.3428013 0.2799229 0.08257425
v 0.3194638 0.3410209 0.1014546
v 0.3428013 0.2799229 0.1203349
v 0.3377137 0.341021 0.1335757
v 0.3774177 0.2370747 0.1014546
v 0.3377137 0.341021 0.1335757
v 0.3428013 0.2799229 0.1203349
v 0.3805619 0.3032603 0.150884
v 0.4038993 0.2421622 0.1320036
v 0.44166 0.2767787 0.1534277
v 0.3774177 0.2370747 0.1014546
v 0.44166 0.2767787 0.1534277
v 0.44166 0.341021 0.1625527
v 0.3805619 0.3032603 0.150884
v 0.3805619 0.3787816 0.150884
v 0.3377137 0.341021 0.1335757
v 0.44166 0.4052633 0.1534277
v 0.5456062 0.341021 0.1335757
v 0.502758 0.3787817 0.150884
v 0.502758 0.3032603 0.150884
v 0.44166 0.341021 0.1625527
v 0.44166 0.2767787 0.1534277
v 0.44166 0.4052633 0.1534277
v 0.44166 0.4052633 0.04948147
v 0.502758 0.3787817 0.05202521
v 0.44166 0.341021 0.04035652
v 0.502758 0.3032603 0.05202522
v 0.44166 0.2767787 0.04948147
v 0.5456062 0.341021 0.06933343
v 0.44166 0.4052633 0.04948147
v 0.44166 0.341021 0.04035652
v 0.3805619 0.3787816 0.05202521
v 0.3805619 0.3032603 0.05202522
v 0.3377137 0.3410209 0.06933343
v 0.44166 0.2767787 0.04948147
v 0.3774176 0.4449672 -0.1015
v 0.4038993 0.4398797 -0.07095098
v 0.44166 0.4632171 -0.1015
v 0.4794206 0.4398797 -0.07095098
v 0.5059022 0.4449672 -0.1015
v 0.44166 0.4052633 -0.04952689
v 0.5059022 0.4449672 -0.1015
v 0.4794206 0.4398797 -0.07095098
v 0.5405187 0.4021191 -0.08261967
v 0.502758 0.3787817 -0.05207064
v 0.5456062 0.341021 -0.06937885
v 0.44166 0.4052633 -0.04952689
v 0.5059022 0.4449672 -0.1015
v 0.5405187 0.4021191 -0.08261967
v 0.5405187 0.4021191 -0.1203803
v 0.5638561 0.341021 -0.1015
v 0.5456062 0.341021 -0.1336212
v 0.5456062 0.341021 -0.06937885
v 0.5059022 0.4449672 -0.1015
v 0.5405187 0.4021191 -0.1203803
v 0.4794206 0.4398797 -0.132049
v 0.502758 0.3787817 -0.1509294
v 0.44166 0.4052633 -0.1534731
v 0.5456062 0.341021 -0.1336212
v 0.5059022 0.4449672 -0.1015
v 0.4794206 0.4398797 -0.132049
v 0.44166 0.4632171 -0.1015
v 0.4038993 0.4398797 -0.132049
v 0.3774176 0.4449672 -0.1015
v 0.44166 0.4052633 -0.1534731
v 0.44166 0.4052633 -0.1534731
v 0.3805619 0.3787816 -0.1509294
v 0.4038993 0.4398797 -0.132049
v 0.3428012 0.402119 -0.1203803
v 0.3774176 0.4449672 -0.1015
v 0.3377137 0.3410209 -0.1336212
v 0.3377137 0.3410209 -0.1336212
v 0.3194638 0.3410209 -0.1015
v 0.3428012 0.402119 -0.1203803
v 0.3428012 0.402119 -0.08261967
v 0.3774176 0.4449672 -0.1015
v 0.3377137 0.3410209 -0.06937885
v 0.3774176 0.4449672 -0.1015
v 0.3428012 0.402119 -0.08261967
v 0.4038993 0.4398797 -0.07095098
v 0.3805619 0.3787816 -0.05207064
v 0.44166 0.4052633 -0.04952689
v 0.3377137 0.3410209 -0.06937885
v 0.5059023 0.2370748 -0.1015
v 0.4794207 0.2421623 -0.07095098
v 0.44166 0.2188248 -0.1015
v 0.4038993 0.2421622 -0.07095098
v 0.3774177 0.2370747 -0.1015
v 0.44166 0.2767787 -0.04952689
v 0.5456062 0.341021 -0.06937885
v 0.502758 0.3032603 -0.05207063
v 0.5405187 0.2799229 -0.08261967
v 0.4794207 0.2421623 -0.07095098
v 0.5059023 0.2370748 -0.1015
v 0.44166 0.2767787 -0.04952689
v 0.5456062 0.341021 -0.06937885
v 0.5405187 0.2799229 -0.08261967
v 0.5638561 0.341021 -0.1015
v 0.5405187 0.2799229 -0.1203803
v 0.5456062 0.341021 -0.1336212
v 0.5059023 0.2370748 -0.1015
v 0.5456062 0.341021 -0.1336212
v 0.5405187 0.2799229 -0.1203803
v 0.502758 0.3032603 -0.1509294
v 0.4794207 0.2421622 -0.132049
v 0.44166 0.2767787 -0.1534731
v 0.5059023 0.2370748 -0.1015
v 0.44166 0.2767787 -0.1534731
v 0.4794207 0.2421622 -0.132049
v 0.4038993 0.2421622 -0.132049
v 0.44166 0.2188248 -0.1015
v 0.3774177 0.2370747 -0.1015
v 0.5059023 0.2370748 -0.1015
v 0.44166 0.2767787 -0.1534731
v 0.4038993 0.2421622 -0.132049
v 0.3805619 0.3032603 -0.1509294
v 0.3428013 0.2799229 -0.1203803
v 0.3377137 0.3410209 -0.1336212
v 0.3774177 0.2370747 -0.1015
v 0.3377137 0.3410209 -0.1336212
v 0.3428013 0.2799229 -0.1203803
v 0.3194638 0.3410209 -0.1015
v 0.3428013 0.2799229 -0.08261967
v 0.3377137 0.3410209 -0.06937885
v 0.3774177 0.2370747 -0.1015
v 0.3377137 0.3410209 -0.06937885
v 0.3428013 0.2799229 -0.08261967
v 0.3805619 0.3032603 -0.05207063
v 0.4038993 0.2421622 -0.07095098
v 0.44166 0.2767787 -0.04952689
v 0.3774177 0.2370747 -0.1015
v 0.44166 0.2767787 -0.04952689
v 0.44166 0.341021 -0.04040195
v 0.3805619 0.3032603 -0.05207063
v 0.3805619 0.3787816 -0.05207064
v 0.3377137 0.3410209 -0.06937885
v 0.44166 0.4052633 -0.04952689
v 0.5456062 0.341021 -0.06937885
v 0.502758 0.3787817 -0.05207064
v 0.502758 0.3032603 -0.05207063
v 0.44166 0.341021 -0.04040195
v 0.44166 0.2767787 -0.04952689
v 0.44166 0.4052633 -0.04952689
v 0.44166 0.4052633 -0.1534731
v 0.502758 0.3787817 -0.1509294
v 0.44166 0.341021 -0.1625981
v 0.502758 0.3032603 -0.1509294
v 0.44166 0.2767787 -0.1534731
v 0.5456062 0.341021 -0.1336212
v 0.44166 0.4052633 -0.1534731
v 0.44166 0.341021 -0.1625981
v 0.3805619 0.3787816 -0.1509294
v 0.3805619 0.3032603 -0.1509294
v 0.3377137 0.3410209 -0.1336212
v 0.44166 0.2767787 -0.1534731
v 0.441656 0.6593273 -0.007465329
v 0.4352762 0.6593273 -0.003781982
v 0.4480357 0.6593273 -0.00378198
v 0.4352744 0.6594366 0.003605036
v 0.4480376 0.6594366 0.003605038
v 0.441656 0.6595257 0.007306871
v 0.2155537 0.006466552 -0.0001184598
v 0.337807 0.001559747 -0.05998687
v 0.2458458 0.006466539 -0.1131697
v 0.3286051 0.006466586 -0.195929
v 0.321786 0.001559742 -0.0001955063
v 0.2458457 0.006466604 0.1129328
v 0.3817879 0.001559772 -0.1039677
v 0.4416564 0.006466657 -0.2262209
v 0.3378841 0.001559781 0.05988346
v 0.328605 0.006466689 0.1956921
v 0.4416563 0.04858206 -0.0001184372
v 0.4415793 0.00155981 -0.1199887
v 0.3817879 0.001559836 0.1037308
v 0.4416562 0.006466788 0.2259841
v 0.5015247 0.001559874 -0.1039677
v 0.5547076 0.006466757 -0.1959289
v 0.6374668 0.006466841 -0.1131696
v 0.4415792 0.001559877 0.1197519
v 0.5547075 0.00646686 0.1956922
v 0.5455056 0.001559906 -0.05998683
v 0.6677588 0.006466917 -0.0001183628
v 0.5016582 0.001559915 0.1036538
v 0.6374668 0.006466907 0.1129329
v 0.5455056 0.00155994 0.05975001
v 0.5615266 0.001559945 -4.133483E-05
v 0.4416558 0.8472219 0.03720441
v 0.4416558 0.8478296 0.05744236
v 0.4243169 0.8474827 0.04738124
v 0.4589947 0.8474827 0.04738124
v 0.4244941 0.8482633 0.06759297
v 0.4588175 0.8482633 0.06759297
v 0.4416558 0.8482633 0.07750127
v 0.4416558 0.7449044 -0.2283464
v 0.4414482 0.7355 -0.1209632
v 0.3275419 0.7449043 -0.1977697
v 0.5557696 0.7449045 -0.1977696
v 0.3810537 0.7354999 -0.1046693
v 0.2440047 0.7449043 -0.1142325
v 0.5022578 0.7355 -0.1046693
v 0.6393067 0.7449046 -0.1142325
v 0.3368975 0.7354999 -0.06036113
v 0.2134279 0.7449043 -0.000118671
v 0.3208111 0.7354999 8.897334E-05
v 0.2440047 0.7449044 0.1139952
v 0.3371051 0.7355 0.06048343
v 0.3275418 0.7449044 0.1975323
v 0.4416401 0.657528 -0.009238272
v 0.4370824 0.657528 -0.008008636
v 0.4337501 0.657528 -0.004664873
v 0.4462292 0.657528 -0.008008636
v 0.4416558 0.6546333 -0.0001186068
v 0.4325361 0.657528 -0.0001029415
v 0.4495615 0.657528 -0.00466487
v 0.4337658 0.657528 0.00445479
v 0.3814133 0.7355 0.1046396
v 0.546414 0.7355 -0.06036109
v 0.4414481 0.7355 0.120726
v 0.4416557 0.7449045 0.2281091
v 0.4371095 0.657528 0.007787086
v 0.4507754 0.657528 -0.000134275
v 0.5625003 0.7355001 -0.0003262261
v 0.6698834 0.7449046 -0.0001185762
v 0.6393066 0.7449046 0.1139953
v 0.5018982 0.7355001 0.1046397
v 0.5557695 0.7449046 0.1975324
v 0.4416401 0.657528 0.009001059
v 0.5462064 0.7355002 0.06048348
v 0.4495458 0.657528 0.004454794
v 0.4462021 0.657528 0.007787088
v 0.4038993 0.4398797 0.1320036
v 0.3774176 0.4449672 0.1014546
v 0.44166 0.4632171 0.1014546
v 0.4794206 0.4398798 0.1320036
v 0.5059022 0.4449672 0.1014546
v 0.44166 0.4052633 0.1534277
v 0.4794206 0.4398798 0.1320036
v 0.5059022 0.4449672 0.1014546
v 0.5405187 0.4021191 0.1203349
v 0.502758 0.3787817 0.150884
v 0.5456062 0.341021 0.1335757
v 0.44166 0.4052633 0.1534277
v 0.5405187 0.4021191 0.1203349
v 0.5059022 0.4449672 0.1014546
v 0.5405187 0.4021191 0.08257424
v 0.5638561 0.341021 0.1014546
v 0.5456062 0.341021 0.06933343
v 0.5456062 0.341021 0.1335757
v 0.5405187 0.4021191 0.08257424
v 0.5059022 0.4449672 0.1014546
v 0.4794206 0.4398797 0.07090555
v 0.502758 0.3787817 0.05202521
v 0.44166 0.4052633 0.04948147
v 0.5456062 0.341021 0.06933343
v 0.4794206 0.4398797 0.07090555
v 0.5059022 0.4449672 0.1014546
v 0.44166 0.4632171 0.1014546
v 0.4038993 0.4398797 0.07090555
v 0.3774176 0.4449672 0.1014546
v 0.44166 0.4052633 0.04948147
v 0.3805619 0.3787816 0.05202521
v 0.44166 0.4052633 0.04948147
v 0.4038993 0.4398797 0.07090555
v 0.3428012 0.402119 0.08257424
v 0.3774176 0.4449672 0.1014546
v 0.3377137 0.3410209 0.06933343
v 0.3194638 0.3410209 0.1014546
v 0.3377137 0.3410209 0.06933343
v 0.3428012 0.402119 0.08257424
v 0.3428012 0.402119 0.1203349
v 0.3774176 0.4449672 0.1014546
v 0.3377137 0.341021 0.1335757
v 0.3428012 0.402119 0.1203349
v 0.3774176 0.4449672 0.1014546
v 0.4038993 0.4398797 0.1320036
v 0.3805619 0.3787816 0.150884
v 0.44166 0.4052633 0.1534277
v 0.3377137 0.341021 0.1335757
v 0.4794207 0.2421623 0.1320036
v 0.5059023 0.2370748 0.1014546
v 0.44166 0.2188248 0.1014546
v 0.4038993 0.2421622 0.1320036
v 0.3774177 0.2370747 0.1014546
v 0.44166 0.2767787 0.1534277
v 0.502758 0.3032603 0.150884
v 0.5456062 0.341021 0.1335757
v 0.5405187 0.279923 0.1203349
v 0.4794207 0.2421623 0.1320036
v 0.5059023 0.2370748 0.1014546
v 0.44166 0.2767787 0.1534277
v 0.5405187 0.279923 0.1203349
v 0.5456062 0.341021 0.1335757
v 0.5638561 0.341021 0.1014546
v 0.5405187 0.279923 0.08257425
v 0.5456062 0.341021 0.06933343
v 0.5059023 0.2370748 0.1014546
v 0.5405187 0.279923 0.08257425
v 0.5456062 0.341021 0.06933343
v 0.502758 0.3032603 0.05202522
v 0.4794207 0.2421623 0.07090556
v 0.44166 0.2767787 0.04948147
v 0.5059023 0.2370748 0.1014546
v 0.4794207 0.2421623 0.07090556
v 0.44166 0.2767787 0.04948147
v 0.4038993 0.2421622 0.07090556
v 0.44166 0.2188248 0.1014546
v 0.3774177 0.2370747 0.1014546
v 0.5059023 0.2370748 0.1014546
v 0.4038993 0.2421622 0.07090556
v 0.44166 0.2767787 0.04948147
v 0.3805619 0.3032603 0.05202522
v 0.3428013 0.2799229 0.08257425
v 0.3377137 0.3410209 0.06933343
v 0.3774177 0.2370747 0.1014546
v 0.3428013 0.2799229 0.08257425
v 0.3377137 0.3410209 0.06933343
v 0.3194638 0.3410209 0.1014546
v 0.3428013 0.2799229 0.1203349
v 0.3377137 0.341021 0.1335757
v 0.3774177 0.2370747 0.1014546
v 0.3428013 0.2799229 0.1203349
v 0.3377137 0.341021 0.1335757
v 0.3805619 0.3032603 0.150884
v 0.4038993 0.2421622 0.1320036
v 0.44166 0.2767787 0.1534277
v 0.3774177 0.2370747 0.1014546
v 0.44166 0.341021 0.1625527
v 0.44166 0.2767787 0.1534277
v 0.3805619 0.3032603 0.150884
v 0.3805619 0.3787816 0.150884
v 0.3377137 0.341021 0.1335757
v 0.44166 0.4052633 0.1534277
v 0.502758 0.3787817 0.150884
v 0.5456062 0.341021 0.1335757
v 0.502758 0.3032603 0.150884
v 0.44166 0.341021 0.1625527
v 0.44166 0.2767787 0.1534277
v 0.44166 0.4052633 0.1534277
v 0.502758 0.3787817 0.05202521
v 0.44166 0.4052633 0.04948147
v 0.44166 0.341021 0.04035652
v 0.502758 0.3032603 0.05202522
v 0.44166 0.2767787 0.04948147
v 0.5456062 0.341021 0.06933343
v 0.44166 0.341021 0.04035652
v 0.44166 0.4052633 0.04948147
v 0.3805619 0.3787816 0.05202521
v 0.3805619 0.3032603 0.05202522
v 0.3377137 0.3410209 0.06933343
v 0.44166 0.2767787 0.04948147
v 0.4038993 0.4398797 -0.07095098
v 0.3774176 0.4449672 -0.1015
v 0.44166 0.4632171 -0.1015
v 0.4794206 0.4398797 -0.07095098
v 0.5059022 0.4449672 -0.1015
v 0.44166 0.4052633 -0.04952689
v 0.4794206 0.4398797 -0.07095098
v 0.5059022 0.4449672 -0.1015
v 0.5405187 0.4021191 -0.08261967
v 0.502758 0.3787817 -0.05207064
v 0.5456062 0.341021 -0.06937885
v 0.44166 0.4052633 -0.04952689
v 0.5405187 0.4021191 -0.08261967
v 0.5059022 0.4449672 -0.1015
v 0.5405187 0.4021191 -0.1203803
v 0.5638561 0.341021 -0.1015
v 0.5456062 0.341021 -0.1336212
v 0.5456062 0.341021 -0.06937885
v 0.5405187 0.4021191 -0.1203803
v 0.5059022 0.4449672 -0.1015
v 0.4794206 0.4398797 -0.132049
v 0.502758 0.3787817 -0.1509294
v 0.44166 0.4052633 -0.1534731
v 0.5456062 0.341021 -0.1336212
v 0.4794206 0.4398797 -0.132049
v 0.5059022 0.4449672 -0.1015
v 0.44166 0.4632171 -0.1015
v 0.4038993 0.4398797 -0.132049
v 0.3774176 0.4449672 -0.1015
v 0.44166 0.4052633 -0.1534731
v 0.3805619 0.3787816 -0.1509294
v 0.44166 0.4052633 -0.1534731
v 0.4038993 0.4398797 -0.132049
v 0.3428012 0.402119 -0.1203803
v 0.3774176 0.4449672 -0.1015
v 0.3377137 0.3410209 -0.1336212
v 0.3194638 0.3410209 -0.1015
v 0.3377137 0.3410209 -0.1336212
v 0.3428012 0.402119 -0.1203803
v 0.3428012 0.402119 -0.08261967
v 0.3774176 0.4449672 -0.1015
v 0.3377137 0.3410209 -0.06937885
v 0.3428012 0.402119 -0.08261967
v 0.3774176 0.4449672 -0.1015
v 0.4038993 0.4398797 -0.07095098
v 0.3805619 0.3787816 -0.05207064
v 0.44166 0.4052633 -0.04952689
v 0.3377137 0.3410209 -0.06937885
v 0.4794207 0.2421623 -0.07095098
v 0.5059023 0.2370748 -0.1015
v 0.44166 0.2188248 -0.1015
v 0.4038993 0.2421622 -0.07095098
v 0.3774177 0.2370747 -0.1015
v 0.44166 0.2767787 -0.04952689
v 0.502758 0.3032603 -0.05207063
v 0.5456062 0.341021 -0.06937885
v 0.5405187 0.2799229 -0.08261967
v 0.4794207 0.2421623 -0.07095098
v 0.5059023 0.2370748 -0.1015
v 0.44166 0.2767787 -0.04952689
v 0.5405187 0.2799229 -0.08261967
v 0.5456062 0.341021 -0.06937885
v 0.5638561 0.341021 -0.1015
v 0.5405187 0.2799229 -0.1203803
v 0.5456062 0.341021 -0.1336212
v 0.5059023 0.2370748 -0.1015
v 0.5405187 0.2799229 -0.1203803
v 0.5456062 0.341021 -0.1336212
v 0.502758 0.3032603 -0.1509294
v 0.4794207 0.2421622 -0.132049
v 0.44166 0.2767787 -0.1534731
v 0.5059023 0.2370748 -0.1015
v 0.4794207 0.2421622 -0.132049
v 0.44166 0.2767787 -0.1534731
v 0.4038993 0.2421622 -0.132049
v 0.44166 0.2188248 -0.1015
v 0.3774177 0.2370747 -0.1015
v 0.5059023 0.2370748 -0.1015
v 0.4038993 0.2421622 -0.132049
v 0.44166 0.2767787 -0.1534731
v 0.3805619 0.3032603 -0.1509294
v 0.3428013 0.2799229 -0.1203803
v 0.3377137 0.3410209 -0.1336212
v 0.3774177 0.2370747 -0.1015
v 0.3428013 0.2799229 -0.1203803
v 0.3377137 0.3410209 -0.1336212
v 0.3194638 0.3410209 -0.1015
v 0.3428013 0.2799229 -0.08261967
v 0.3377137 0.3410209 -0.06937885
v 0.3774177 0.2370747 -0.1015
v 0.3428013 0.2799229 -0.08261967
v 0.3377137 0.3410209 -0.06937885
v 0.3805619 0.3032603 -0.05207063
v 0.4038993 0.2421622 -0.07095098
v 0.44166 0.2767787 -0.04952689
v 0.3774177 0.2370747 -0.1015
v 0.44166 0.341021 -0.04040195
v 0.44166 0.2767787 -0.04952689
v 0.3805619 0.3032603 -0.05207063
v 0.3805619 0.3787816 -0.05207064
v 0.3377137 0.3410209 -0.06937885
v 0.44166 0.4052633 -0.04952689
v 0.502758 0.3787817 -0.05207064
v 0.5456062 0.341021 -0.06937885
v 0.502758 0.3032603 -0.05207063
v 0.44166 0.341021 -0.04040195
v 0.44166 0.2767787 -0.04952689
v 0.44166 0.4052633 -0.04952689
v 0.502758 0.3787817 -0.1509294
v 0.44166 0.4052633 -0.1534731
v 0.44166 0.341021 -0.1625981
v 0.502758 0.3032603 -0.1509294
v 0.44166 0.2767787 -0.1534731
v 0.5456062 0.341021 -0.1336212
v 0.44166 0.341021 -0.1625981
v 0.44166 0.4052633 -0.1534731
v 0.3805619 0.3787816 -0.1509294
v 0.3805619 0.3032603 -0.1509294
v 0.3377137 0.3410209 -0.1336212
v 0.44166 0.2767787 -0.1534731
vt 0.9041697 0.01766801
vt 0.9998416 0.06483281
vt 0.9998416 0.01766801
vt 0.9041697 0.06483281
vt 0.9998416 0.1116027
vt 0.8183302 0.06483281
vt 0.8183302 0.01766801
vt 0.7370067 0.01766801
vt 0.9041697 0.1116027
vt 0.9998416 0.1674134
vt 0.7370067 0.06483281
vt 0.8183302 0.1116027
vt 0.9041697 0.1674134
vt 0.9041697 0.2386087
vt 0.9998416 0.2386087
vt 0.9998416 0.3174702
vt 0.6578736 0.06483281
vt 0.6578736 0.01766801
vt 0.5798807 0.01766801
vt 0.7370067 0.1116027
vt 0.8183302 0.1674134
vt 0.5798807 0.06483281
vt 0.5028851 0.01766801
vt 0.6578736 0.1116027
vt 0.7370067 0.1674134
vt 0.5028851 0.06483281
vt 0.4254008 0.01766801
vt 0.5798807 0.1116027
vt 0.8183302 0.2386087
vt 0.6578736 0.1674134
vt 0.8183302 0.3174702
vt 0.7370067 0.2386087
vt 0.6578736 0.2386087
vt 0.5798807 0.1674134
vt 0.9041697 0.3174702
vt 0.9998416 0.3757834
vt 0.9041697 0.3757834
vt 0.9998416 0.4319725
vt 0.7370067 0.3174702
vt 0.8183302 0.3757834
vt 0.9041697 0.4319725
vt 0.9998416 0.4867957
vt 0.9041697 0.4867957
vt 0.8183302 0.4867957
vt 0.8183302 0.4319725
vt 0.7370067 0.4319725
vt 0.7370067 0.4867957
vt 0.7370067 0.3757834
vt 0.6578736 0.4319725
vt 0.6578736 0.4867957
vt 0.6578736 0.3757834
vt 0.5798807 0.4319725
vt 0.5798807 0.4867957
vt 0.5028851 0.4867957
vt 0.6578736 0.3174702
vt 0.5798807 0.3757834
vt 0.5798807 0.2386087
vt 0.5798807 0.3174702
vt 0.5028851 0.3757834
vt 0.5028851 0.4319725
vt 0.5028851 0.1674134
vt 0.5028851 0.2386087
vt 0.4254008 0.4319725
vt 0.4254008 0.4867957
vt 0.4254008 0.3757834
vt 0.3471964 0.4319725
vt 0.3471964 0.4867957
vt 0.5028851 0.3174702
vt 0.4254008 0.3174702
vt 0.4254008 0.2386087
vt 0.5028851 0.1116027
vt 0.4254008 0.1674134
vt 0.3471964 0.1674134
vt 0.4254008 0.1116027
vt 0.3471964 0.2386087
vt 0.3471964 0.3174702
vt 0.4254008 0.06483281
vt 0.3471964 0.1116027
vt 0.3471964 0.06483281
vt 0.3471964 0.01766801
vt 0.2680577 0.01766801
vt 0.2680577 0.06483281
vt 0.3471964 0.3757834
vt 0.2680577 0.2386087
vt 0.2680577 0.1116027
vt 0.186893 0.06483281
vt 0.186893 0.01766801
vt 0.1010377 0.01766801
vt 0.2680577 0.3174702
vt 0.2680577 0.3757834
vt 0.2680577 0.1674134
vt 0.186893 0.1116027
vt 0.1010377 0.06483281
vt 0.00494796 0.01766801
vt 0.00494796 0.06483281
vt 0.1010377 0.1116027
vt 0.00494796 0.1116027
vt 0.186893 0.1674134
vt 0.1010377 0.1674134
vt 0.00494796 0.1674134
vt 0.186893 0.2386087
vt 0.1010377 0.2386087
vt 0.00494796 0.2386087
vt 0.186893 0.3174702
vt 0.1010377 0.3174702
vt 0.00494796 0.3174702
vt 0.186893 0.3757834
vt 0.1010377 0.3757834
vt 0.00494796 0.3757834
vt 0.2680577 0.4319725
vt 0.2680577 0.4867957
vt 0.186893 0.4867957
vt 0.186893 0.4319725
vt 0.1010377 0.4867957
vt 0.1010377 0.4319725
vt 0.00494796 0.4319725
vt 0.00494796 0.4867957
vt 0.7311935 0.6634982
vt 0.7208471 0.6200038
vt 0.7217683 0.6656347
vt 0.7285856 0.6183741
vt 0.7178419 0.5547753
vt 0.7248445 0.5537513
vt 0.7217683 0.6656347
vt 0.7132617 0.622779
vt 0.7129725 0.6692611
vt 0.7208471 0.6200038
vt 0.7108821 0.5564846
vt 0.7178419 0.5547753
vt 0.7129725 0.6692611
vt 0.7039646 0.6240999
vt 0.7038949 0.6708056
vt 0.7132617 0.622779
vt 0.7039038 0.5573448
vt 0.7108821 0.5564846
vt 0.7039646 0.6240999
vt 0.6948178 0.6692582
vt 0.7038949 0.6708056
vt 0.694546 0.6227781
vt 0.7039038 0.5573448
vt 0.6969271 0.5564847
vt 0.6869611 0.6200013
vt 0.6766016 0.6634905
vt 0.6860256 0.6656297
vt 0.6792232 0.6183705
vt 0.6899676 0.5547754
vt 0.6829655 0.5537513
vt 0.694546 0.6227781
vt 0.6860256 0.6656297
vt 0.6948178 0.6692582
vt 0.6869611 0.6200013
vt 0.6969271 0.5564847
vt 0.6899676 0.5547754
vt 0 1
vt 0.25 0.5
vt 0.5 1
vt 0.75 0.5
vt 1 1
vt 0.5 0
vt 0 1
vt 0.25 0.5
vt 0.5 1
vt 0.75 0.5
vt 1 1
vt 0.5 0
vt 0 1
vt 0.25 0.5
vt 0.5 1
vt 0.75 0.5
vt 1 1
vt 0.5 0
vt 0 1
vt 0.25 0.5
vt 0.5 1
vt 0.75 0.5
vt 1 1
vt 0.5 0
vt 0 1
vt 0.25 0.5
vt 0.5 1
vt 0.75 0.5
vt 1 1
vt 0.5 0
vt 0 1
vt 0.25 0.5
vt 0.5 1
vt 0.75 0.5
vt 1 1
vt 0.5 0
vt 0 1
vt 0.25 0.5
vt 0.5 1
vt 0.75 0.5
vt 1 1
vt 0.5 0
vt 0 1
vt 0.25 0.5
vt 0.5 1
vt 0.75 0.5
vt 1 1
vt 0.5 0
vt 0 1
vt 0.25 0.5
vt 0.5 1
vt 0.75 0.5
vt 1 1
vt 0.5 0
vt 0 1
vt 0.25 0.5
vt 0.5 1
vt 0.75 0.5
vt 1 1
vt 0.5 0
vt 0 1
vt 0.25 0.5
vt 0.5 1
vt 0.75 0.5
vt 1 1
vt 0.5 0
vt 0 1
vt 0.25 0.5
vt 0.5 1
vt 0.75 0.5
vt 1 1
vt 0.5 0
vt 0 1
vt 0.25 0.5
vt 0.5 1
vt 0.75 0.5
vt 1 1
vt 0.5 0
vt 0 1
vt 0.25 0.5
vt 0.5 1
vt 0.75 0.5
vt 1 1
vt 0.5 0
vt 0 1
vt 0.25 0.5
vt 0.5 1
vt 0.75 0.5
vt 1 1
vt 0.5 0
vt 0 1
vt 0.25 0.5
vt 0.5 1
vt 0.75 0.5
vt 1 1
vt 0.5 0
vt 0 1
vt 0.25 0.5
vt 0.5 1
vt 0.75 0.5
vt 1 1
vt 0.5 0
vt 0 1
vt 0.25 0.5
vt 0.5 1
vt 0.75 0.5
vt 1 1
vt 0.5 0
vt 0 1
vt 0.25 0.5
vt 0.5 1
vt 0.75 0.5
vt 1 1
vt 0.5 0
vt 0 1
vt 0.25 0.5
vt 0.5 1
vt 0.75 0.5
vt 1 1
vt 0.5 0
vt 0 1
vt 0.25 0.5
vt 0.5 1
vt 0.75 0.5
vt 1 1
vt 0.5 0
vt 0 1
vt 0.25 0.5
vt 0.5 1
vt 0.75 0.5
vt 1 1
vt 0.5 0
vt 0 1
vt 0.25 0.5
vt 0.5 1
vt 0.75 0.5
vt 1 1
vt 0.5 0
vt 0 1
vt 0.25 0.5
vt 0.5 1
vt 0.75 0.5
vt 1 1
vt 0.5 0
vt 0 1
vt 0.25 0.5
vt 0.5 1
vt 0.75 0.5
vt 1 1
vt 0.5 0
vt 0 1
vt 0.25 0.5
vt 0.5 1
vt 0.75 0.5
vt 1 1
vt 0.5 0
vt 0 1
vt 0.25 0.5
vt 0.5 1
vt 0.75 0.5
vt 1 1
vt 0.5 0
vt 0 1
vt 0.25 0.5
vt 0.5 1
vt 0.75 0.5
vt 1 1
vt 0.5 0
vt 0 1
vt 0.25 0.5
vt 0.5 1
vt 0.75 0.5
vt 1 1
vt 0.5 0
vt 0 1
vt 0.25 0.5
vt 0.5 1
vt 0.75 0.5
vt 1 1
vt 0.5 0
vt 0 1
vt 0.25 0.5
vt 0.5 1
vt 0.75 0.5
vt 1 1
vt 0.5 0
vt 0 1
vt 0.25 0.5
vt 0.5 1
vt 0.75 0.5
vt 1 1
vt 0.5 0
vt 0 1
vt 0.25 0.5
vt 0.5 1
vt 0.75 0.5
vt 1 1
vt 0.5 0
vt 0 1
vt 0.25 0.5
vt 0.5 1
vt 0.75 0.5
vt 1 1
vt 0.5 0
vt 0 1
vt 0.25 0.5
vt 0.5 1
vt 0.75 0.5
vt 1 1
vt 0.5 0
vt 0 1
vt 0.25 0.5
vt 0.5 1
vt 0.75 0.5
vt 1 1
vt 0.5 0
vt 0 1
vt 0.25 0.5
vt 0.5 1
vt 0.75 0.5
vt 1 1
vt 0.5 0
vt 0 1
vt 0.25 0.5
vt 0.5 1
vt 0.75 0.5
vt 1 1
vt 0.5 0
vt 0 1
vt 0.25 0.5
vt 0.5 1
vt 0.75 0.5
vt 1 1
vt 0.5 0
vt 0 1
vt 0.25 0.5
vt 0.5 1
vt 0.75 0.5
vt 1 1
vt 0.5 0
vt 0.5474573 0.646606
vt 0.5458769 0.6497744
vt 0.5458769 0.6434376
vt 0.5427072 0.6497753
vt 0.5427072 0.6434367
vt 0.5411188 0.646606
vt 0.4380736 0.6752808
vt 0.487801 0.6318957
vt 0.4380705 0.618584
vt 0.4664188 0.5694792
vt 0.4877756 0.6618714
vt 0.4664229 0.7243771
vt 0.5028835 0.6058246
vt 0.5155286 0.541127
vt 0.5028126 0.6879674
vt 0.5155197 0.752721
vt 0.5438683 0.6469337
vt 0.5288572 0.5908608
vt 0.52883 0.7029961
vt 0.5722084 0.752721
vt 0.5589029 0.5908734
vt 0.5722444 0.5411355
vt 0.6213655 0.569524
vt 0.558804 0.7030227
vt 0.6213008 0.7243823
vt 0.5849605 0.6059656
vt 0.6496868 0.6186454
vt 0.5849015 0.6879886
vt 0.6496515 0.675305
vt 0.5999388 0.6619724
vt 0.5999869 0.6319864
vt 0.7481759 0.568212
vt 0.7398137 0.5633028
vt 0.7397677 0.5729047
vt 0.7481759 0.558583
vt 0.7314569 0.5679277
vt 0.7397798 0.5537513
vt 0.7315274 0.5584378
vt 0.2852491 0.7594197
vt 0.2990136 0.7078363
vt 0.2345001 0.7299929
vt 0.3439158 0.7594197
vt 0.2722721 0.6923578
vt 0.2053753 0.679188
vt 0.330109 0.7079108
vt 0.3946091 0.730067
vt 0.2568752 0.6655529
vt 0.2055732 0.6206999
vt 0.256952 0.6346378
vt 0.2349317 0.5701988
vt 0.2724649 0.6078904
vt 0.2854639 0.541127
vt 0.3134249 0.654577
vt 0.3114068 0.6534088
vt 0.3102448 0.651386
vt 0.3157715 0.6545826
vt 0.3146012 0.6502296
vt 0.3102506 0.6490529
vt 0.3177915 0.653415
vt 0.3114213 0.6470344
vt 0.2992648 0.5924178
vt 0.3568756 0.6924386
vt 0.3300131 0.592525
vt 0.3437567 0.5411503
vt 0.3134438 0.6458668
vt 0.3189522 0.6514078
vt 0.3722561 0.6658428
vt 0.4237801 0.6793307
vt 0.4236671 0.6208505
vt 0.3567921 0.6079763
vt 0.3943579 0.570289
vt 0.3157642 0.6458749
vt 0.372274 0.6347319
vt 0.3189535 0.64906
vt 0.3177852 0.6470409
vt 0.25 0.5
vt 0 1
vt 0.5 1
vt 0.75 0.5
vt 1 1
vt 0.5 0
vt 0.25 0.5
vt 0 1
vt 0.5 1
vt 0.75 0.5
vt 1 1
vt 0.5 0
vt 0.25 0.5
vt 0 1
vt 0.5 1
vt 0.75 0.5
vt 1 1
vt 0.5 0
vt 0.25 0.5
vt 0 1
vt 0.5 1
vt 0.75 0.5
vt 1 1
vt 0.5 0
vt 0.25 0.5
vt 0 1
vt 0.5 1
vt 0.75 0.5
vt 1 1
vt 0.5 0
vt 0.25 0.5
vt 0 1
vt 0.5 1
vt 0.75 0.5
vt 1 1
vt 0.5 0
vt 0.25 0.5
vt 0 1
vt 0.5 1
vt 0.75 0.5
vt 1 1
vt 0.5 0
vt 0.25 0.5
vt 0 1
vt 0.5 1
vt 0.75 0.5
vt 1 1
vt 0.5 0
vt 0.25 0.5
vt 0 1
vt 0.5 1
vt 0.75 0.5
vt 1 1
vt 0.5 0
vt 0.25 0.5
vt 0 1
vt 0.5 1
vt 0.75 0.5
vt 1 1
vt 0.5 0
vt 0.25 0.5
vt 0 1
vt 0.5 1
vt 0.75 0.5
vt 1 1
vt 0.5 0
vt 0.25 0.5
vt 0 1
vt 0.5 1
vt 0.75 0.5
vt 1 1
vt 0.5 0
vt 0.25 0.5
vt 0 1
vt 0.5 1
vt 0.75 0.5
vt 1 1
vt 0.5 0
vt 0.25 0.5
vt 0 1
vt 0.5 1
vt 0.75 0.5
vt 1 1
vt 0.5 0
vt 0.25 0.5
vt 0 1
vt 0.5 1
vt 0.75 0.5
vt 1 1
vt 0.5 0
vt 0.25 0.5
vt 0 1
vt 0.5 1
vt 0.75 0.5
vt 1 1
vt 0.5 0
vt 0.25 0.5
vt 0 1
vt 0.5 1
vt 0.75 0.5
vt 1 1
vt 0.5 0
vt 0.25 0.5
vt 0 1
vt 0.5 1
vt 0.75 0.5
vt 1 1
vt 0.5 0
vt 0.25 0.5
vt 0 1
vt 0.5 1
vt 0.75 0.5
vt 1 1
vt 0.5 0
vt 0.25 0.5
vt 0 1
vt 0.5 1
vt 0.75 0.5
vt 1 1
vt 0.5 0
vt 0.25 0.5
vt 0 1
vt 0.5 1
vt 0.75 0.5
vt 1 1
vt 0.5 0
vt 0.25 0.5
vt 0 1
vt 0.5 1
vt 0.75 0.5
vt 1 1
vt 0.5 0
vt 0.25 0.5
vt 0 1
vt 0.5 1
vt 0.75 0.5
vt 1 1
vt 0.5 0
vt 0.25 0.5
vt 0 1
vt 0.5 1
vt 0.75 0.5
vt 1 1
vt 0.5 0
vt 0.25 0.5
vt 0 1
vt 0.5 1
vt 0.75 0.5
vt 1 1
vt 0.5 0
vt 0.25 0.5
vt 0 1
vt 0.5 1
vt 0.75 0.5
vt 1 1
vt 0.5 0
vt 0.25 0.5
vt 0 1
vt 0.5 1
vt 0.75 0.5
vt 1 1
vt 0.5 0
vt 0.25 0.5
vt 0 1
vt 0.5 1
vt 0.75 0.5
vt 1 1
vt 0.5 0
vt 0.25 0.5
vt 0 1
vt 0.5 1
vt 0.75 0.5
vt 1 1
vt 0.5 0
vt 0.25 0.5
vt 0 1
vt 0.5 1
vt 0.75 0.5
vt 1 1
vt 0.5 0
vt 0.25 0.5
vt 0 1
vt 0.5 1
vt 0.75 0.5
vt 1 1
vt 0.5 0
vt 0.25 0.5
vt 0 1
vt 0.5 1
vt 0.75 0.5
vt 1 1
vt 0.5 0
vt 0.25 0.5
vt 0 1
vt 0.5 1
vt 0.75 0.5
vt 1 1
vt 0.5 0
vt 0.25 0.5
vt 0 1
vt 0.5 1
vt 0.75 0.5
vt 1 1
vt 0.5 0
vt 0.25 0.5
vt 0 1
vt 0.5 1
vt 0.75 0.5
vt 1 1
vt 0.5 0
vt 0.25 0.5
vt 0 1
vt 0.5 1
vt 0.75 0.5
vt 1 1
vt 0.5 0
vt 0.25 0.5
vt 0 1
vt 0.5 1
vt 0.75 0.5
vt 1 1
vt 0.5 0
vt 0.25 0.5
vt 0 1
vt 0.5 1
vt 0.75 0.5
vt 1 1
vt 0.5 0
vt 0.25 0.5
vt 0 1
vt 0.5 1
vt 0.75 0.5
vt 1 1
vt 0.5 0
vt 0.25 0.5
vt 0 1
vt 0.5 1
vt 0.75 0.5
vt 1 1
vt 0.5 0
vn 0.09824982 0.9792866 0.1770441
vn -0.0156804 0.8009791 0.598487
vn -0.02285751 0.9858871 0.1658434
vn 0.2808069 0.772676 0.5693147
vn -0.007415071 0.5126754 0.8585504
vn 0.4808536 0.8195 0.3117687
vn 0.09667217 0.9934213 0.06138889
vn 0.2506407 0.9680802 3.906223E-06
vn 0.4228537 0.5126757 0.7472339
vn 0.03603424 0.2249007 0.9737152
vn 0.6334445 0.772676 0.04147043
vn 0.7398192 0.5126758 0.4356963
vn 0.5249366 0.2661279 0.8084661
vn 0.4999999 0 0.8660255
vn -0.05349761 -0.02418102 0.9982752
vn 0.002413892 -0.2387227 0.9710848
vn 0.5104264 0.8194996 -0.2605477
vn 0.06931835 0.99679 -0.04005819
vn 0.1027433 0.9858841 -0.1321978
vn 0.8585503 0.5126758 0.007414354
vn 0.8389376 0.2423665 0.4872802
vn 0.312822 0.8009791 -0.5104653
vn 0.02260724 0.9759234 -0.2169389
vn 0.7472336 0.5126757 -0.4228541
vn 0.9737151 0.224901 -0.03603458
vn -0.01619893 0.7813271 -0.6239114
vn -0.1042004 0.9792864 -0.1736102
vn 0.409504 0.4914005 -0.7686561
vn 0.8912802 0.02418204 0.4528078
vn 0.8084661 0.2661277 -0.5249367
vn 0.8258218 -0.2217707 0.5184941
vn 0.9982752 -0.02418021 0.05349762
vn 0.8843848 0.01728738 -0.4664384
vn 0.5335441 0.2177861 -0.8172514
vn 0.4381739 -0.2617807 0.8599271
vn 0.005155977 -0.4708973 0.882173
vn 0.4675009 -0.4868094 0.7378749
vn 0.04416109 -0.6966888 0.716013
vn 0.966118 -0.2552639 -0.03816225
vn 0.800909 -0.469448 0.3717033
vn 0.3207416 -0.7671372 0.5555405
vn -0.001838923 -0.9408356 0.3388583
vn 0.1232555 -0.9679957 0.218615
vn 0.2925435 -0.9408355 0.1710169
vn 0.5980052 -0.6966885 0.3962511
vn 0.7088158 -0.7050744 0.02122035
vn 0.2656735 -0.9638283 -0.02127619
vn 0.882185 -0.470903 0
vn 0.5908466 -0.7244547 -0.3550572
vn 0.248363 -0.952806 -0.1745755
vn 0.8009092 -0.4694483 -0.3717026
vn 0.3070937 -0.7428271 -0.594896
vn 0.1512436 -0.9531532 -0.2619622
vn -3.929616E-06 -0.9531528 -0.3024895
vn 0.7946365 -0.2378299 -0.5585604
vn 0.5077563 -0.4694488 -0.7223583
vn 0.5000002 0 -0.8660253
vn 0.4088952 -0.2378305 -0.8810456
vn 0.03155485 -0.4542793 -0.8903003
vn -0.04416018 -0.6966894 -0.7160124
vn 0.03817589 0.2594104 -0.9650123
vn 0 0 -1
vn -0.3046361 -0.7501695 -0.5868922
vn -0.1745751 -0.9528064 -0.248362
vn -0.4675003 -0.4868109 -0.7378744
vn -0.6032413 -0.7050757 -0.3727846
vn -0.320708 -0.9351091 -0.1507227
vn -0.05341657 -0.2148672 -0.9751814
vn -0.4876328 -0.2387238 -0.8397769
vn -0.4999998 0 -0.8660255
vn 0 0.5126893 -0.8585743
vn -0.4409887 0.2177853 -0.8706886
vn -0.8402048 0.2423658 -0.4850926
vn -0.4095044 0.4913998 -0.7686562
vn -0.8377829 -0.02418181 -0.5454677
vn -0.8421908 -0.238724 -0.4834517
vn -0.3526376 0.7726752 -0.5278445
vn -0.7172049 0.5604964 -0.4140785
vn -0.465215 0.8434651 -0.268592
vn -0.1014721 0.9934233 -0.05304229
vn -0.2024512 0.9792864 0.003434081
vn -0.6568913 0.7539853 0
vn -0.7984808 -0.4473324 -0.4028922
vn -0.9991189 0.01728595 -0.03824471
vn -0.8744507 0.4824872 -0.0504178
vn -0.4652151 0.8434652 0.2685914
vn -0.0966721 0.9934233 0.06135545
vn -0.07855465 0.9914992 0.1037228
vn -0.9710847 -0.2387234 0.002413882
vn -0.8821725 -0.4708983 0.005155896
vn -0.9626209 0.2661265 0.05037545
vn -0.7500415 0.5330809 0.3914875
vn -0.3128232 0.8009788 0.5104651
vn -0.02285751 0.9858871 0.1658434
vn -0.0156804 0.8009791 0.598487
vn -0.4356968 0.5126749 0.7398195
vn -0.007415071 0.5126754 0.8585504
vn -0.8414662 0.2423652 0.4829014
vn -0.4872805 0.2423657 0.8389378
vn 0.03603424 0.2249007 0.9737152
vn -0.8660255 0 0.4999999
vn -0.5000003 0 0.8660253
vn -0.05349761 -0.02418102 0.9982752
vn -0.8397769 -0.2387232 0.4876329
vn -0.4834518 -0.2387232 0.842191
vn 0.002413892 -0.2387227 0.9710848
vn -0.7614056 -0.4708981 0.4455516
vn -0.4366211 -0.4708976 0.7665621
vn 0.005155977 -0.4708973 0.882173
vn -0.6687413 -0.7428277 0.03149803
vn -0.2509561 -0.967995 -0.002568316
vn -0.2753676 -0.9528062 0.1278003
vn -0.5650707 -0.7231389 0.3971965
vn -0.1745725 -0.9528053 0.2483674
vn -0.2907675 -0.7231385 0.6265181
vn 0.04416109 -0.6966888 0.716013
vn -0.001838923 -0.9408356 0.3388583
vn 0.4757366 0.2654865 -0.8385651
vn 0.4788421 0.2250579 -0.848563
vn 0.4850096 0.2657527 -0.8331514
vn 0.4821239 0.1840413 -0.8565543
vn 0.4887181 0.1429837 -0.8606453
vn 0.4948661 0.1429332 -0.8571333
vn 0.9992022 -0.01060236 -0.03850606
vn 0.9981205 -0.03056394 -0.05311582
vn 0.9997922 -0.01805746 0.009464744
vn 0.9970847 -0.05187838 -0.05595335
vn 0.9962624 -0.07621363 -0.04065413
vn 0.9966394 -0.08190882 0.0009668457
vn 0.5123823 -0.3027657 0.8036152
vn 0.5245049 -0.3004752 0.7966236
vn 0.4767026 -0.3016965 0.8256718
vn 0.5243359 -0.2986763 0.7974111
vn 0.5127479 -0.2962671 0.8058011
vn 0.4761443 -0.2962747 0.827954
vn -0.5197387 -0.3014574 0.7993718
vn -0.5086708 -0.3041793 0.8054371
vn -0.4764805 -0.3030976 0.8252867
vn -0.5196422 -0.2991911 0.8002853
vn -0.5092521 -0.2962928 0.8080055
vn -0.4761445 -0.2962759 0.8279535
vn -0.4788422 0.225057 -0.8485632
vn -0.4757367 0.2654855 -0.8385655
vn -0.4850096 0.2657517 -0.8331517
vn -0.482124 0.1840403 -0.8565544
vn -0.488718 0.1429828 -0.8606455
vn -0.494866 0.1429323 -0.8571336
vn -0.9981204 -0.03056539 -0.0531176
vn -0.9992021 -0.01060375 -0.0385074
vn -0.9997922 -0.01805906 0.009464807
vn -0.9970844 -0.05187995 -0.05595514
vn -0.9962623 -0.07621541 -0.04065547
vn -0.9966393 -0.08191082 0.0009668595
vn 0.5263306 -0.85028 0
vn 0.2416079 -0.6429736 -0.726781
vn 0 -0.8869153 -0.4619321
vn -0.2416075 -0.6429739 -0.7267809
vn -0.5263303 -0.8502802 0
vn 0 -0.3104267 -0.9505973
vn -0.5263303 -0.8502802 0
vn -0.2416075 -0.6429739 -0.7267809
vn -0.7419536 -0.4526072 -0.4946226
vn -0.3065943 -0.1927128 -0.9321275
vn -0.6634703 0 -0.7482025
vn 0 -0.3104267 -0.9505973
vn -0.5263303 -0.8502802 0
vn -0.7419536 -0.4526072 -0.4946226
vn -0.7419535 -0.4526072 0.4946228
vn -1 0 0
vn -0.6634703 0 0.7482026
vn -0.6634703 0 -0.7482025
vn -0.5263303 -0.8502802 0
vn -0.7419535 -0.4526072 0.4946228
vn -0.2416075 -0.6429737 0.7267811
vn -0.3065943 -0.1927128 0.9321275
vn 0 -0.3104268 0.9505972
vn -0.6634703 0 0.7482026
vn -0.5263303 -0.8502802 0
vn -0.2416075 -0.6429737 0.7267811
vn 0 -0.886915 0.4619326
vn 0.2416078 -0.6429736 0.726781
vn 0.5263306 -0.85028 0
vn 0 -0.3104268 0.9505972
vn 0 -0.3104268 0.9505972
vn 0.3065943 -0.1927126 0.9321275
vn 0.2416078 -0.6429736 0.726781
vn 0.7419537 -0.4526069 0.4946228
vn 0.5263306 -0.85028 0
vn 0.6634702 0 0.7482027
vn 0.6634702 0 0.7482027
vn 1 0 0
vn 0.7419537 -0.4526069 0.4946228
vn 0.7419537 -0.4526069 -0.4946227
vn 0.5263306 -0.85028 0
vn 0.6634703 0 -0.7482026
vn 0.5263306 -0.85028 0
vn 0.7419537 -0.4526069 -0.4946227
vn 0.2416079 -0.6429736 -0.726781
vn 0.3065943 -0.1927127 -0.9321275
vn 0 -0.3104267 -0.9505973
vn 0.6634703 0 -0.7482026
vn -0.5263307 0.85028 0
vn -0.2416078 0.6429736 -0.7267811
vn 0 0.886915 -0.4619326
vn 0.2416075 0.6429737 -0.726781
vn 0.5263302 0.8502802 0
vn 0 0.3104268 -0.9505972
vn -0.6634703 0 -0.7482025
vn -0.3065945 0.1927127 -0.9321275
vn -0.7419538 0.4526067 -0.4946228
vn -0.2416078 0.6429736 -0.7267811
vn -0.5263307 0.85028 0
vn 0 0.3104268 -0.9505972
vn -0.6634703 0 -0.7482025
vn -0.7419538 0.4526067 -0.4946228
vn -1 0 0
vn -0.7419538 0.4526068 0.4946228
vn -0.6634703 0 0.7482026
vn -0.5263307 0.85028 0
vn -0.6634703 0 0.7482026
vn -0.7419538 0.4526068 0.4946228
vn -0.3065944 0.1927128 0.9321275
vn -0.2416078 0.6429736 0.7267811
vn 0 0.3104268 0.9505972
vn -0.5263307 0.85028 0
vn 0 0.3104268 0.9505972
vn -0.2416078 0.6429736 0.7267811
vn 0.2416075 0.6429738 0.726781
vn 0 0.8869151 0.4619325
vn 0.5263302 0.8502802 0
vn -0.5263307 0.85028 0
vn 0 0.3104268 0.9505972
vn 0.2416075 0.6429738 0.726781
vn 0.3065943 0.1927129 0.9321275
vn 0.7419534 0.4526074 0.4946226
vn 0.6634702 0 0.7482027
vn 0.5263302 0.8502802 0
vn 0.6634702 0 0.7482027
vn 0.7419534 0.4526074 0.4946226
vn 1 0 0
vn 0.7419535 0.4526073 -0.4946227
vn 0.6634703 0 -0.7482026
vn 0.5263302 0.8502802 0
vn 0.6634703 0 -0.7482026
vn 0.7419535 0.4526073 -0.4946227
vn 0.3065943 0.1927129 -0.9321275
vn 0.2416075 0.6429737 -0.726781
vn 0 0.3104268 -0.9505972
vn 0.5263302 0.8502802 0
vn 0 0.3104268 -0.9505972
vn 0 0 -1
vn 0.3065943 0.1927129 -0.9321275
vn 0.3065943 -0.1927127 -0.9321275
vn 0.6634703 0 -0.7482026
vn 0 -0.3104267 -0.9505973
vn -0.6634703 0 -0.7482025
vn -0.3065943 -0.1927128 -0.9321275
vn -0.3065945 0.1927127 -0.9321275
vn 0 0 -1
vn 0 0.3104268 -0.9505972
vn 0 -0.3104267 -0.9505973
vn 0 -0.3104268 0.9505972
vn -0.3065943 -0.1927128 0.9321275
vn 0 0 1
vn -0.3065944 0.1927128 0.9321275
vn 0 0.3104268 0.9505972
vn -0.6634703 0 0.7482026
vn 0 -0.3104268 0.9505972
vn 0 0 1
vn 0.3065943 -0.1927126 0.9321275
vn 0.3065943 0.1927129 0.9321275
vn 0.6634702 0 0.7482027
vn 0 0.3104268 0.9505972
vn 0.5263308 -0.8502799 0
vn 0.2416079 -0.6429736 -0.726781
vn 0 -0.886915 -0.4619328
vn -0.2416075 -0.6429737 -0.7267811
vn -0.5263302 -0.8502802 0
vn 0 -0.3104269 -0.9505972
vn -0.5263302 -0.8502802 0
vn -0.2416075 -0.6429737 -0.7267811
vn -0.7419535 -0.4526073 -0.4946228
vn -0.3065944 -0.1927129 -0.9321275
vn -0.6634703 0 -0.7482026
vn 0 -0.3104269 -0.9505972
vn -0.5263302 -0.8502802 0
vn -0.7419535 -0.4526073 -0.4946228
vn -0.7419535 -0.4526072 0.4946227
vn -1 0 0
vn -0.6634704 0 0.7482025
vn -0.6634703 0 -0.7482026
vn -0.5263302 -0.8502802 0
vn -0.7419535 -0.4526072 0.4946227
vn -0.2416075 -0.6429737 0.7267811
vn -0.3065944 -0.1927129 0.9321275
vn 0 -0.3104268 0.9505972
vn -0.6634704 0 0.7482025
vn -0.5263302 -0.8502802 0
vn -0.2416075 -0.6429737 0.7267811
vn 0 -0.8869149 0.4619328
vn 0.2416079 -0.6429736 0.726781
vn 0.5263308 -0.8502799 0
vn 0 -0.3104268 0.9505972
vn 0 -0.3104268 0.9505972
vn 0.3065945 -0.1927126 0.9321275
vn 0.2416079 -0.6429736 0.726781
vn 0.7419538 -0.4526068 0.4946228
vn 0.5263308 -0.8502799 0
vn 0.6634703 0 0.7482026
vn 0.6634703 0 0.7482026
vn 1 0 0
vn 0.7419538 -0.4526068 0.4946228
vn 0.7419538 -0.4526069 -0.4946227
vn 0.5263308 -0.8502799 0
vn 0.6634703 0 -0.7482026
vn 0.5263308 -0.8502799 0
vn 0.7419538 -0.4526069 -0.4946227
vn 0.2416079 -0.6429736 -0.726781
vn 0.3065945 -0.1927127 -0.9321275
vn 0 -0.3104269 -0.9505972
vn 0.6634703 0 -0.7482026
vn -0.5263306 0.85028 0
vn -0.2416077 0.6429736 -0.726781
vn 0 0.886915 -0.4619327
vn 0.2416073 0.6429737 -0.7267811
vn 0.5263301 0.8502803 0
vn 0 0.3104268 -0.9505972
vn -0.6634703 0 -0.7482026
vn -0.3065943 0.1927126 -0.9321275
vn -0.7419537 0.4526068 -0.4946228
vn -0.2416077 0.6429736 -0.726781
vn -0.5263306 0.85028 0
vn 0 0.3104268 -0.9505972
vn -0.6634703 0 -0.7482026
vn -0.7419537 0.4526068 -0.4946228
vn -1 0 0
vn -0.7419538 0.4526069 0.4946226
vn -0.6634704 0 0.7482025
vn -0.5263306 0.85028 0
vn -0.6634704 0 0.7482025
vn -0.7419538 0.4526069 0.4946226
vn -0.3065945 0.1927127 0.9321275
vn -0.2416079 0.6429737 0.7267809
vn 0 0.3104267 0.9505973
vn -0.5263306 0.85028 0
vn 0 0.3104267 0.9505973
vn -0.2416079 0.6429737 0.7267809
vn 0.2416075 0.6429739 0.7267809
vn 0 0.8869153 0.4619321
vn 0.5263301 0.8502803 0
vn -0.5263306 0.85028 0
vn 0 0.3104267 0.9505973
vn 0.2416075 0.6429739 0.7267809
vn 0.3065943 0.1927128 0.9321275
vn 0.7419535 0.4526073 0.4946227
vn 0.6634703 0 0.7482026
vn 0.5263301 0.8502803 0
vn 0.6634703 0 0.7482026
vn 0.7419535 0.4526073 0.4946227
vn 1 0 0
vn 0.7419535 0.4526073 -0.4946228
vn 0.6634703 0 -0.7482026
vn 0.5263301 0.8502803 0
vn 0.6634703 0 -0.7482026
vn 0.7419535 0.4526073 -0.4946228
vn 0.3065943 0.1927128 -0.9321275
vn 0.2416073 0.6429737 -0.7267811
vn 0 0.3104268 -0.9505972
vn 0.5263301 0.8502803 0
vn 0 0.3104268 -0.9505972
vn 0 0 -1
vn 0.3065943 0.1927128 -0.9321275
vn 0.3065945 -0.1927127 -0.9321275
vn 0.6634703 0 -0.7482026
vn 0 -0.3104269 -0.9505972
vn -0.6634703 0 -0.7482026
vn -0.3065944 -0.1927129 -0.9321275
vn -0.3065943 0.1927126 -0.9321275
vn 0 0 -1
vn 0 0.3104268 -0.9505972
vn 0 -0.3104269 -0.9505972
vn 0 -0.3104268 0.9505972
vn -0.3065944 -0.1927129 0.9321275
vn 0 0 1
vn -0.3065945 0.1927127 0.9321275
vn 0 0.3104267 0.9505973
vn -0.6634704 0 0.7482025
vn 0 -0.3104268 0.9505972
vn 0 0 1
vn 0.3065945 -0.1927126 0.9321275
vn 0.3065943 0.1927128 0.9321275
vn 0.6634703 0 0.7482026
vn 0 0.3104267 0.9505973
vn 0 -1 0
vn 0 -0.9999727 0.007393676
vn 0 -0.9999727 0.007393676
vn 0 -0.9998114 0.0194277
vn 0 -0.9998114 0.0194277
vn 0 -0.9997103 0.02406803
vn -0.2509561 -0.967995 -0.002568316
vn 0.07996363 -0.9957278 0.04617436
vn -0.320708 -0.9351091 -0.1507227
vn -0.1745751 -0.9528064 -0.248362
vn 0.1204653 -0.9927143 0.00252352
vn -0.2753676 -0.9528062 0.1278003
vn 0.06242909 -0.9927147 0.1030536
vn -3.929616E-06 -0.9531528 -0.3024895
vn 0.1055738 -0.9927142 -0.05807487
vn -0.1745725 -0.9528053 0.2483674
vn -1.36894E-05 -1 -1.415916E-05
vn 4.763537E-05 -0.9866899 0.1626129
vn 0.06239145 -0.9927147 -0.1030762
vn -0.001838923 -0.9408356 0.3388583
vn -0.04614239 -0.9957274 0.07998621
vn 0.1512436 -0.9531532 -0.2619622
vn 0.248363 -0.952806 -0.1745755
vn 0.002523935 -0.9927145 -0.1204642
vn 0.1232555 -0.9679957 0.218615
vn -0.1030804 -0.9927143 0.06239149
vn 0.2656735 -0.9638283 -0.02127619
vn -0.05807446 -0.9927143 -0.1055727
vn 0.2925435 -0.9408355 0.1710169
vn -0.1030756 -0.9927148 -0.06239045
vn -0.1626118 -0.9866902 -4.655294E-05
vn 0 0.9995494 -0.03001329
vn 0 0.9995474 -0.03008218
vn -8.172539E-05 0.9994111 -0.03431329
vn 8.173727E-05 0.9994111 -0.03431329
vn 0.007448495 0.9995186 -0.0301158
vn -0.007448486 0.9995186 -0.03011579
vn 0 0.9997663 -0.0216178
vn 0.02260724 0.9759234 -0.2169389
vn 0.0001864539 0.9668583 0.2553135
vn -0.1042004 0.9792864 -0.1736102
vn 0.1027433 0.9858841 -0.1321978
vn 0.1492561 0.9572251 0.2478763
vn -0.1014721 0.9934233 -0.05304229
vn -0.1490422 0.9572288 0.2479904
vn 0.06931835 0.99679 -0.04005819
vn 0.2531976 0.9572253 0.1400387
vn -0.2024512 0.9792864 0.003434081
vn 0.2892949 0.9572253 -0.005322901
vn -0.0966721 0.9934233 0.06135545
vn 0.2478756 0.957225 -0.1492578
vn -0.07855465 0.9914992 0.1037228
vn 0.0003558524 0.8970759 0.4418764
vn 0.2215966 0.897074 0.3823
vn 0.3830575 0.8970743 0.2202832
vn -0.2212539 0.8970746 0.3824968
vn 8.144209E-05 1 -0.0002329795
vn 0.441879 0.8970744 -0.0007599157
vn -0.3828653 0.8970706 0.220632
vn 0.3822989 0.8970739 -0.2215986
vn 0.1697063 0.9404558 -0.2945211
vn -0.2945213 0.9404555 0.1697077
vn 0.005085671 0.9572131 -0.2893393
vn -0.02285751 0.9858871 0.1658434
vn 0.2206279 0.8970719 -0.3828647
vn -0.4418839 0.8970723 -3.982691E-05
vn -0.2553518 0.9668482 -7.721803E-06
vn 0.2506407 0.9680802 3.906223E-06
vn 0.09667217 0.9934213 0.06138889
vn -0.1400393 0.9572248 -0.2531987
vn 0.09824982 0.9792866 0.1770441
vn 0.0003562526 0.8970706 -0.441887
vn -0.2479916 0.9572287 -0.149041
vn -0.3824991 0.8970745 -0.2212504
vn -0.2202836 0.8970727 -0.383061
vn -0.2416079 0.6429736 0.726781
vn -0.5263306 0.85028 0
vn 0 0.8869153 0.4619321
vn 0.2416075 0.6429739 0.7267809
vn 0.5263303 0.8502802 0
vn 0 0.3104267 0.9505973
vn 0.2416075 0.6429739 0.7267809
vn 0.5263303 0.8502802 0
vn 0.7419536 0.4526072 0.4946225
vn 0.3065943 0.1927128 0.9321275
vn 0.6634704 0 0.7482025
vn 0 0.3104267 0.9505973
vn 0.7419536 0.4526072 0.4946225
vn 0.5263303 0.8502802 0
vn 0.7419535 0.4526073 -0.4946228
vn 1 0 0
vn 0.6634703 0 -0.7482026
vn 0.6634704 0 0.7482025
vn 0.7419535 0.4526073 -0.4946228
vn 0.5263303 0.8502802 0
vn 0.2416075 0.6429737 -0.7267811
vn 0.3065943 0.1927128 -0.9321275
vn 0 0.3104268 -0.9505972
vn 0.6634703 0 -0.7482026
vn 0.2416075 0.6429737 -0.7267811
vn 0.5263303 0.8502802 0
vn 0 0.886915 -0.4619327
vn -0.2416078 0.6429736 -0.726781
vn -0.5263306 0.85028 0
vn 0 0.3104268 -0.9505972
vn -0.3065944 0.1927126 -0.9321277
vn 0 0.3104268 -0.9505972
vn -0.2416078 0.6429736 -0.726781
vn -0.7419538 0.4526069 -0.4946228
vn -0.5263306 0.85028 0
vn -0.6634702 0 -0.7482027
vn -1 0 0
vn -0.6634702 0 -0.7482027
vn -0.7419538 0.4526069 -0.4946228
vn -0.7419538 0.4526069 0.4946228
vn -0.5263306 0.85028 0
vn -0.6634703 0 0.7482026
vn -0.7419538 0.4526069 0.4946228
vn -0.5263306 0.85028 0
vn -0.2416079 0.6429736 0.726781
vn -0.3065943 0.1927127 0.9321275
vn 0 0.3104267 0.9505973
vn -0.6634703 0 0.7482026
vn 0.2416078 -0.6429735 0.7267811
vn 0.5263307 -0.85028 0
vn 0 -0.886915 0.4619326
vn -0.2416075 -0.6429737 0.726781
vn -0.5263302 -0.8502802 0
vn 0 -0.3104268 0.9505972
vn 0.3065945 -0.1927127 0.9321275
vn 0.6634704 0 0.7482025
vn 0.7419538 -0.4526068 0.4946227
vn 0.2416078 -0.6429735 0.7267811
vn 0.5263307 -0.85028 0
vn 0 -0.3104268 0.9505972
vn 0.7419538 -0.4526068 0.4946227
vn 0.6634704 0 0.7482025
vn 1 0 0
vn 0.7419538 -0.4526068 -0.4946228
vn 0.6634703 0 -0.7482026
vn 0.5263307 -0.85028 0
vn 0.7419538 -0.4526068 -0.4946228
vn 0.6634703 0 -0.7482026
vn 0.3065945 -0.1927128 -0.9321275
vn 0.2416078 -0.6429735 -0.7267811
vn 0 -0.3104268 -0.9505972
vn 0.5263307 -0.85028 0
vn 0.2416078 -0.6429735 -0.7267811
vn 0 -0.3104268 -0.9505972
vn -0.2416075 -0.6429738 -0.726781
vn 0 -0.8869151 -0.4619325
vn -0.5263302 -0.8502802 0
vn 0.5263307 -0.85028 0
vn -0.2416075 -0.6429738 -0.726781
vn 0 -0.3104268 -0.9505972
vn -0.3065943 -0.1927129 -0.9321275
vn -0.7419534 -0.4526074 -0.4946226
vn -0.6634702 0 -0.7482027
vn -0.5263302 -0.8502802 0
vn -0.7419534 -0.4526074 -0.4946226
vn -0.6634702 0 -0.7482027
vn -1 0 0
vn -0.7419535 -0.4526073 0.4946227
vn -0.6634703 0 0.7482026
vn -0.5263302 -0.8502802 0
vn -0.7419535 -0.4526073 0.4946227
vn -0.6634703 0 0.7482026
vn -0.3065943 -0.1927129 0.9321275
vn -0.2416075 -0.6429737 0.726781
vn 0 -0.3104268 0.9505972
vn -0.5263302 -0.8502802 0
vn 0 0 1
vn 0 -0.3104268 0.9505972
vn -0.3065943 -0.1927129 0.9321275
vn -0.3065943 0.1927127 0.9321275
vn -0.6634703 0 0.7482026
vn 0 0.3104267 0.9505973
vn 0.3065943 0.1927128 0.9321275
vn 0.6634704 0 0.7482025
vn 0.3065945 -0.1927127 0.9321275
vn 0 0 1
vn 0 -0.3104268 0.9505972
vn 0 0.3104267 0.9505973
vn 0.3065943 0.1927128 -0.9321275
vn 0 0.3104268 -0.9505972
vn 0 0 -1
vn 0.3065945 -0.1927128 -0.9321275
vn 0 -0.3104268 -0.9505972
vn 0.6634703 0 -0.7482026
vn 0 0 -1
vn 0 0.3104268 -0.9505972
vn -0.3065944 0.1927126 -0.9321277
vn -0.3065943 -0.1927129 -0.9321275
vn -0.6634702 0 -0.7482027
vn 0 -0.3104268 -0.9505972
vn -0.2416079 0.6429736 0.726781
vn -0.5263308 0.8502799 0
vn 0 0.886915 0.4619327
vn 0.2416074 0.6429737 0.726781
vn 0.5263302 0.8502802 0
vn 0 0.3104269 0.9505972
vn 0.2416074 0.6429737 0.726781
vn 0.5263302 0.8502802 0
vn 0.7419535 0.4526072 0.4946228
vn 0.3065943 0.1927129 0.9321275
vn 0.6634703 0 0.7482026
vn 0 0.3104269 0.9505972
vn 0.7419535 0.4526072 0.4946228
vn 0.5263302 0.8502802 0
vn 0.7419535 0.4526072 -0.4946227
vn 1 0 0
vn 0.6634704 0 -0.7482025
vn 0.6634703 0 0.7482026
vn 0.7419535 0.4526072 -0.4946227
vn 0.5263302 0.8502802 0
vn 0.2416075 0.6429735 -0.7267811
vn 0.3065944 0.1927129 -0.9321275
vn 0 0.3104268 -0.9505972
vn 0.6634704 0 -0.7482025
vn 0.2416075 0.6429735 -0.7267811
vn 0.5263302 0.8502802 0
vn 0 0.8869149 -0.4619328
vn -0.2416079 0.6429735 -0.7267811
vn -0.5263308 0.8502799 0
vn 0 0.3104268 -0.9505972
vn -0.3065945 0.1927126 -0.9321275
vn 0 0.3104268 -0.9505972
vn -0.2416079 0.6429735 -0.7267811
vn -0.7419538 0.4526068 -0.4946227
vn -0.5263308 0.8502799 0
vn -0.6634703 0 -0.7482027
vn -1 0 0
vn -0.6634703 0 -0.7482027
vn -0.7419538 0.4526068 -0.4946227
vn -0.7419538 0.4526068 0.4946227
vn -0.5263308 0.8502799 0
vn -0.6634703 0 0.7482027
vn -0.7419538 0.4526068 0.4946227
vn -0.5263308 0.8502799 0
vn -0.2416079 0.6429736 0.726781
vn -0.3065945 0.1927127 0.9321275
vn 0 0.3104269 0.9505972
vn -0.6634703 0 0.7482027
vn 0.2416077 -0.6429736 0.726781
vn 0.5263306 -0.85028 0
vn 0 -0.886915 0.4619327
vn -0.2416073 -0.6429738 0.726781
vn -0.5263301 -0.8502803 0
vn 0 -0.3104268 0.9505972
vn 0.3065944 -0.1927127 0.9321275
vn 0.6634703 0 0.7482026
vn 0.7419537 -0.4526068 0.4946228
vn 0.2416077 -0.6429736 0.726781
vn 0.5263306 -0.85028 0
vn 0 -0.3104268 0.9505972
vn 0.7419537 -0.4526068 0.4946228
vn 0.6634703 0 0.7482026
vn 1 0 0
vn 0.7419538 -0.4526068 -0.4946227
vn 0.6634704 0 -0.7482025
vn 0.5263306 -0.85028 0
vn 0.7419538 -0.4526068 -0.4946227
vn 0.6634704 0 -0.7482025
vn 0.3065945 -0.1927127 -0.9321275
vn 0.2416078 -0.6429738 -0.7267809
vn 0 -0.3104267 -0.9505973
vn 0.5263306 -0.85028 0
vn 0.2416078 -0.6429738 -0.7267809
vn 0 -0.3104267 -0.9505973
vn -0.2416075 -0.6429739 -0.7267809
vn 0 -0.8869153 -0.4619321
vn -0.5263301 -0.8502803 0
vn 0.5263306 -0.85028 0
vn -0.2416075 -0.6429739 -0.7267809
vn 0 -0.3104267 -0.9505973
vn -0.3065943 -0.1927128 -0.9321275
vn -0.7419535 -0.4526073 -0.4946227
vn -0.6634703 0 -0.7482027
vn -0.5263301 -0.8502803 0
vn -0.7419535 -0.4526073 -0.4946227
vn -0.6634703 0 -0.7482027
vn -1 0 0
vn -0.7419534 -0.4526073 0.4946228
vn -0.6634703 0 0.7482027
vn -0.5263301 -0.8502803 0
vn -0.7419534 -0.4526073 0.4946228
vn -0.6634703 0 0.7482027
vn -0.3065942 -0.1927128 0.9321275
vn -0.2416073 -0.6429738 0.726781
vn 0 -0.3104268 0.9505972
vn -0.5263301 -0.8502803 0
vn 0 0 1
vn 0 -0.3104268 0.9505972
vn -0.3065942 -0.1927128 0.9321275
vn -0.3065945 0.1927127 0.9321275
vn -0.6634703 0 0.7482027
vn 0 0.3104269 0.9505972
vn 0.3065943 0.1927129 0.9321275
vn 0.6634703 0 0.7482026
vn 0.3065944 -0.1927127 0.9321275
vn 0 0 1
vn 0 -0.3104268 0.9505972
vn 0 0.3104269 0.9505972
vn 0.3065944 0.1927129 -0.9321275
vn 0 0.3104268 -0.9505972
vn 0 0 -1
vn 0.3065945 -0.1927127 -0.9321275
vn 0 -0.3104267 -0.9505973
vn 0.6634704 0 -0.7482025
vn 0 0 -1
vn 0 0.3104268 -0.9505972
vn -0.3065945 0.1927126 -0.9321275
vn -0.3065943 -0.1927128 -0.9321275
vn -0.6634703 0 -0.7482027
vn 0 -0.3104267 -0.9505973
g Apple_0
f 3/3/3 2/2/2 1/1/1
f 1/1/1 2/2/2 4/4/4
f 2/2/2 5/5/5 4/4/4
f 6/6/6 1/1/1 4/4/4
f 7/7/7 1/1/1 6/6/6
f 7/7/7 6/6/6 8/8/8
f 4/4/4 5/5/5 9/9/9
f 4/4/4 9/9/9 6/6/6
f 5/5/5 10/10/10 9/9/9
f 8/8/8 6/6/6 11/11/11
f 6/6/6 9/9/9 12/12/12
f 6/6/6 12/12/12 11/11/11
f 9/9/9 10/10/10 13/13/13
f 9/9/9 13/13/13 12/12/12
f 13/13/13 10/10/10 14/14/14
f 14/14/14 10/10/10 15/15/15
f 15/15/15 16/16/16 14/14/14
f 17/17/17 8/8/8 11/11/11
f 18/18/18 8/8/8 17/17/17
f 18/18/18 17/17/17 19/19/19
f 11/11/11 12/12/12 20/20/20
f 11/11/11 20/20/20 17/17/17
f 12/12/12 13/13/13 21/21/21
f 13/13/13 14/14/14 21/21/21
f 12/12/12 21/21/21 20/20/20
f 19/19/19 17/17/17 22/22/22
f 19/19/19 22/22/22 23/23/23
f 17/17/17 20/20/20 24/24/24
f 17/17/17 24/24/24 22/22/22
f 20/20/20 21/21/21 25/25/25
f 20/20/20 25/25/25 24/24/24
f 23/23/23 22/22/22 26/26/26
f 23/23/23 26/26/26 27/27/27
f 22/22/22 24/24/24 28/28/28
f 22/22/22 28/28/28 26/26/26
f 21/21/21 14/14/14 29/29/29
f 21/21/21 29/29/29 25/25/25
f 24/24/24 30/30/30 28/28/28
f 24/24/24 25/25/25 30/30/30
f 29/29/29 14/14/14 31/31/31
f 25/25/25 29/29/29 32/32/32
f 29/29/29 31/31/31 32/32/32
f 30/30/30 25/25/25 33/33/33
f 33/33/33 25/25/25 32/32/32
f 28/28/28 30/30/30 34/34/34
f 30/30/30 33/33/33 34/34/34
f 31/31/31 14/14/14 35/35/35
f 14/14/14 16/16/16 35/35/35
f 16/16/16 36/36/36 35/35/35
f 35/35/35 36/36/36 37/37/37
f 35/35/35 37/37/37 31/31/31
f 36/36/36 38/38/38 37/37/37
f 32/32/32 31/31/31 39/39/39
f 32/32/32 39/39/39 33/33/33
f 31/31/31 37/37/37 40/40/40
f 31/31/31 40/40/40 39/39/39
f 37/37/37 38/38/38 41/41/41
f 38/38/38 42/42/42 41/41/41
f 41/41/41 42/42/42 43/43/43
f 44/44/44 41/41/41 43/43/43
f 45/45/45 37/37/37 41/41/41
f 45/45/45 41/41/41 44/44/44
f 40/40/40 37/37/37 45/45/45
f 45/45/45 44/44/44 46/46/46
f 46/46/46 40/40/40 45/45/45
f 46/46/46 44/44/44 47/47/47
f 39/39/39 40/40/40 48/48/48
f 48/48/48 40/40/40 46/46/46
f 46/46/46 47/47/47 49/49/49
f 49/49/49 47/47/47 50/50/50
f 48/48/48 46/46/46 51/51/51
f 51/51/51 39/39/39 48/48/48
f 51/51/51 46/46/46 49/49/49
f 49/49/49 50/50/50 52/52/52
f 52/52/52 50/50/50 53/53/53
f 54/54/54 52/52/52 53/53/53
f 55/55/55 39/39/39 51/51/51
f 33/33/33 39/39/39 55/55/55
f 51/51/51 49/49/49 56/56/56
f 56/56/56 49/49/49 52/52/52
f 56/56/56 55/55/55 51/51/51
f 33/33/33 55/55/55 57/57/57
f 34/34/34 33/33/33 57/57/57
f 58/58/58 55/55/55 56/56/56
f 57/57/57 55/55/55 58/58/58
f 56/56/56 52/52/52 59/59/59
f 59/59/59 58/58/58 56/56/56
f 60/60/60 52/52/52 54/54/54
f 59/59/59 52/52/52 60/60/60
f 34/34/34 57/57/57 61/61/61
f 61/61/61 28/28/28 34/34/34
f 57/57/57 58/58/58 62/62/62
f 61/61/61 57/57/57 62/62/62
f 60/60/60 54/54/54 63/63/63
f 63/63/63 54/54/54 64/64/64
f 65/65/65 60/60/60 63/63/63
f 59/59/59 60/60/60 65/65/65
f 63/63/63 64/64/64 66/66/66
f 66/66/66 65/65/65 63/63/63
f 66/66/66 64/64/64 67/67/67
f 68/68/68 58/58/58 59/59/59
f 62/62/62 58/58/58 68/68/68
f 68/68/68 59/59/59 69/69/69
f 69/69/69 59/59/59 65/65/65
f 62/62/62 68/68/68 70/70/70
f 70/70/70 68/68/68 69/69/69
f 71/71/71 28/28/28 61/61/61
f 26/26/26 28/28/28 71/71/71
f 61/61/61 62/62/62 72/72/72
f 72/72/72 62/62/62 70/70/70
f 72/72/72 70/70/70 73/73/73
f 71/71/71 61/61/61 74/74/74
f 74/74/74 61/61/61 72/72/72
f 74/74/74 26/26/26 71/71/71
f 73/73/73 74/74/74 72/72/72
f 70/70/70 69/69/69 75/75/75
f 73/73/73 70/70/70 75/75/75
f 69/69/69 65/65/65 76/76/76
f 75/75/75 69/69/69 76/76/76
f 77/77/77 26/26/26 74/74/74
f 27/27/27 26/26/26 77/77/77
f 78/78/78 77/77/77 74/74/74
f 78/78/78 74/74/74 73/73/73
f 79/79/79 27/27/27 77/77/77
f 79/79/79 77/77/77 78/78/78
f 80/80/80 27/27/27 79/79/79
f 80/80/80 79/79/79 81/81/81
f 79/79/79 78/78/78 82/82/82
f 81/81/81 79/79/79 82/82/82
f 76/76/76 65/65/65 83/83/83
f 83/83/83 65/65/65 66/66/66
f 75/75/75 76/76/76 84/84/84
f 84/84/84 73/73/73 75/75/75
f 78/78/78 73/73/73 85/85/85
f 82/82/82 78/78/78 85/85/85
f 86/86/86 81/81/81 82/82/82
f 87/87/87 81/81/81 86/86/86
f 87/87/87 86/86/86 88/88/88
f 76/76/76 83/83/83 89/89/89
f 84/84/84 76/76/76 89/89/89
f 83/83/83 66/66/66 90/90/90
f 89/89/89 83/83/83 90/90/90
f 85/85/85 73/73/73 91/91/91
f 91/91/91 73/73/73 84/84/84
f 92/92/92 82/82/82 85/85/85
f 86/86/86 82/82/82 92/92/92
f 85/85/85 91/91/91 92/92/92
f 88/88/88 86/86/86 93/93/93
f 86/86/86 92/92/92 93/93/93
f 88/88/88 93/93/93 94/94/94
f 94/94/94 93/93/93 95/95/95
f 93/93/93 96/96/96 95/95/95
f 93/93/93 92/92/92 96/96/96
f 95/95/95 96/96/96 97/97/97
f 92/92/92 91/91/91 98/98/98
f 91/91/91 84/84/84 98/98/98
f 92/92/92 98/98/98 96/96/96
f 96/96/96 99/99/99 97/97/97
f 96/96/96 98/98/98 99/99/99
f 97/97/97 99/99/99 100/100/100
f 98/98/98 84/84/84 101/101/101
f 98/98/98 101/101/101 99/99/99
f 84/84/84 89/89/89 101/101/101
f 99/99/99 102/102/102 100/100/100
f 99/99/99 101/101/101 102/102/102
f 100/100/100 102/102/102 103/103/103
f 101/101/101 89/89/89 104/104/104
f 101/101/101 104/104/104 102/102/102
f 89/89/89 90/90/90 104/104/104
f 102/102/102 105/105/105 103/103/103
f 102/102/102 104/104/104 105/105/105
f 103/103/103 105/105/105 106/106/106
f 104/104/104 90/90/90 107/107/107
f 104/104/104 107/107/107 105/105/105
f 105/105/105 108/108/108 106/106/106
f 105/105/105 107/107/107 108/108/108
f 106/106/106 108/108/108 109/109/109
f 90/90/90 110/110/110 107/107/107
f 90/90/90 66/66/66 110/110/110
f 66/66/66 67/67/67 110/110/110
f 110/110/110 67/67/67 111/111/111
f 112/112/112 110/110/110 111/111/111
f 107/107/107 110/110/110 113/113/113
f 113/113/113 110/110/110 112/112/112
f 107/107/107 113/113/113 108/108/108
f 114/114/114 113/113/113 112/112/112
f 108/108/108 115/115/115 109/109/109
f 108/108/108 113/113/113 115/115/115
f 115/115/115 113/113/113 114/114/114
f 109/109/109 115/115/115 116/116/116
f 117/117/117 115/115/115 114/114/114
f 116/116/116 115/115/115 117/117/117
f 120/120/120 119/119/119 118/118/118
f 118/118/118 119/119/119 121/121/121
f 119/119/119 122/122/122 121/121/121
f 121/121/121 122/122/122 123/123/123
f 126/126/126 125/125/125 124/124/124
f 124/124/124 125/125/125 127/127/127
f 125/125/125 128/128/128 127/127/127
f 127/127/127 128/128/128 129/129/129
f 132/132/132 131/131/131 130/130/130
f 130/130/130 131/131/131 133/133/133
f 131/131/131 134/134/134 133/133/133
f 133/133/133 134/134/134 135/135/135
f 138/138/138 137/137/137 136/136/136
f 136/136/136 137/137/137 139/139/139
f 136/136/136 139/139/139 140/140/140
f 140/140/140 139/139/139 141/141/141
f 144/144/144 143/143/143 142/142/142
f 142/142/142 143/143/143 145/145/145
f 142/142/142 145/145/145 146/146/146
f 146/146/146 145/145/145 147/147/147
f 150/150/150 149/149/149 148/148/148
f 148/148/148 149/149/149 151/151/151
f 148/148/148 151/151/151 152/152/152
f 152/152/152 151/151/151 153/153/153
f 156/156/156 155/155/155 154/154/154
f 155/155/155 156/156/156 157/157/157
f 158/158/158 157/157/157 156/156/156
f 157/157/157 159/159/159 155/155/155
f 162/162/162 161/161/161 160/160/160
f 161/161/161 162/162/162 163/163/163
f 164/164/164 163/163/163 162/162/162
f 163/163/163 165/165/165 161/161/161
f 168/168/168 167/167/167 166/166/166
f 167/167/167 168/168/168 169/169/169
f 170/170/170 169/169/169 168/168/168
f 169/169/169 171/171/171 167/167/167
f 174/174/174 173/173/173 172/172/172
f 173/173/173 174/174/174 175/175/175
f 176/176/176 175/175/175 174/174/174
f 175/175/175 177/177/177 173/173/173
f 180/180/180 179/179/179 178/178/178
f 179/179/179 180/180/180 181/181/181
f 182/182/182 181/181/181 180/180/180
f 181/181/181 183/183/183 179/179/179
f 186/186/186 185/185/185 184/184/184
f 185/185/185 186/186/186 187/187/187
f 188/188/188 187/187/187 186/186/186
f 187/187/187 189/189/189 185/185/185
f 192/192/192 191/191/191 190/190/190
f 191/191/191 192/192/192 193/193/193
f 194/194/194 193/193/193 192/192/192
f 193/193/193 195/195/195 191/191/191
f 198/198/198 197/197/197 196/196/196
f 197/197/197 198/198/198 199/199/199
f 200/200/200 199/199/199 198/198/198
f 199/199/199 201/201/201 197/197/197
f 204/204/204 203/203/203 202/202/202
f 203/203/203 204/204/204 205/205/205
f 206/206/206 205/205/205 204/204/204
f 205/205/205 207/207/207 203/203/203
f 210/210/210 209/209/209 208/208/208
f 209/209/209 210/210/210 211/211/211
f 212/212/212 211/211/211 210/210/210
f 211/211/211 213/213/213 209/209/209
f 216/216/216 215/215/215 214/214/214
f 215/215/215 216/216/216 217/217/217
f 218/218/218 217/217/217 216/216/216
f 217/217/217 219/219/219 215/215/215
f 222/222/222 221/221/221 220/220/220
f 221/221/221 222/222/222 223/223/223
f 224/224/224 223/223/223 222/222/222
f 223/223/223 225/225/225 221/221/221
f 228/228/228 227/227/227 226/226/226
f 227/227/227 228/228/228 229/229/229
f 230/230/230 229/229/229 228/228/228
f 229/229/229 231/231/231 227/227/227
f 234/234/234 233/233/233 232/232/232
f 233/233/233 234/234/234 235/235/235
f 236/236/236 235/235/235 234/234/234
f 235/235/235 237/237/237 233/233/233
f 240/240/240 239/239/239 238/238/238
f 239/239/239 240/240/240 241/241/241
f 242/242/242 241/241/241 240/240/240
f 241/241/241 243/243/243 239/239/239
f 246/246/246 245/245/245 244/244/244
f 245/245/245 246/246/246 247/247/247
f 248/248/248 247/247/247 246/246/246
f 247/247/247 249/249/249 245/245/245
f 252/252/252 251/251/251 250/250/250
f 251/251/251 252/252/252 253/253/253
f 254/254/254 253/253/253 252/252/252
f 253/253/253 255/255/255 251/251/251
f 258/258/258 257/257/257 256/256/256
f 257/257/257 258/258/258 259/259/259
f 260/260/260 259/259/259 258/258/258
f 259/259/259 261/261/261 257/257/257
f 264/264/264 263/263/263 262/262/262
f 263/263/263 264/264/264 265/265/265
f 266/266/266 265/265/265 264/264/264
f 265/265/265 267/267/267 263/263/263
f 270/270/270 269/269/269 268/268/268
f 269/269/269 270/270/270 271/271/271
f 272/272/272 271/271/271 270/270/270
f 271/271/271 273/273/273 269/269/269
f 276/276/276 275/275/275 274/274/274
f 275/275/275 276/276/276 277/277/277
f 278/278/278 277/277/277 276/276/276
f 277/277/277 279/279/279 275/275/275
f 282/282/282 281/281/281 280/280/280
f 281/281/281 282/282/282 283/283/283
f 284/284/284 283/283/283 282/282/282
f 283/283/283 285/285/285 281/281/281
f 288/288/288 287/287/287 286/286/286
f 287/287/287 288/288/288 289/289/289
f 290/290/290 289/289/289 288/288/288
f 289/289/289 291/291/291 287/287/287
f 294/294/294 293/293/293 292/292/292
f 293/293/293 294/294/294 295/295/295
f 296/296/296 295/295/295 294/294/294
f 295/295/295 297/297/297 293/293/293
f 300/300/300 299/299/299 298/298/298
f 299/299/299 300/300/300 301/301/301
f 302/302/302 301/301/301 300/300/300
f 301/301/301 303/303/303 299/299/299
f 306/306/306 305/305/305 304/304/304
f 305/305/305 306/306/306 307/307/307
f 308/308/308 307/307/307 306/306/306
f 307/307/307 309/309/309 305/305/305
f 312/312/312 311/311/311 310/310/310
f 311/311/311 312/312/312 313/313/313
f 314/314/314 313/313/313 312/312/312
f 313/313/313 315/315/315 311/311/311
f 318/318/318 317/317/317 316/316/316
f 317/317/317 318/318/318 319/319/319
f 320/320/320 319/319/319 318/318/318
f 319/319/319 321/321/321 317/317/317
f 324/324/324 323/323/323 322/322/322
f 323/323/323 324/324/324 325/325/325
f 326/326/326 325/325/325 324/324/324
f 325/325/325 327/327/327 323/323/323
f 330/330/330 329/329/329 328/328/328
f 329/329/329 330/330/330 331/331/331
f 332/332/332 331/331/331 330/330/330
f 331/331/331 333/333/333 329/329/329
f 336/336/336 335/335/335 334/334/334
f 335/335/335 336/336/336 337/337/337
f 338/338/338 337/337/337 336/336/336
f 337/337/337 339/339/339 335/335/335
f 342/342/342 341/341/341 340/340/340
f 341/341/341 342/342/342 343/343/343
f 344/344/344 343/343/343 342/342/342
f 343/343/343 345/345/345 341/341/341
f 348/348/348 347/347/347 346/346/346
f 347/347/347 348/348/348 349/349/349
f 350/350/350 349/349/349 348/348/348
f 349/349/349 351/351/351 347/347/347
f 354/354/354 353/353/353 352/352/352
f 353/353/353 354/354/354 355/355/355
f 356/356/356 355/355/355 354/354/354
f 355/355/355 357/357/357 353/353/353
f 360/360/360 359/359/359 358/358/358
f 359/359/359 360/360/360 361/361/361
f 362/362/362 361/361/361 360/360/360
f 361/361/361 363/363/363 359/359/359
f 366/366/366 365/365/365 364/364/364
f 365/365/365 366/366/366 367/367/367
f 368/368/368 367/367/367 366/366/366
f 367/367/367 369/369/369 365/365/365
f 372/372/372 371/371/371 370/370/370
f 371/371/371 372/372/372 373/373/373
f 374/374/374 373/373/373 372/372/372
f 373/373/373 375/375/375 371/371/371
f 378/378/378 377/377/377 376/376/376
f 377/377/377 378/378/378 379/379/379
f 380/380/380 379/379/379 378/378/378
f 379/379/379 381/381/381 377/377/377
f 384/384/384 383/383/383 382/382/382
f 383/383/383 384/384/384 385/385/385
f 386/386/386 385/385/385 384/384/384
f 385/385/385 387/387/387 383/383/383
f 390/390/390 389/389/389 388/388/388
f 389/389/389 390/390/390 391/391/391
f 392/392/392 391/391/391 390/390/390
f 391/391/391 393/393/393 389/389/389
f 396/396/396 395/395/395 394/394/394
f 397/397/397 395/395/395 396/396/396
f 398/398/398 397/397/397 396/396/396
f 399/399/399 397/397/397 398/398/398
f 402/402/402 401/401/401 400/400/400
f 402/402/402 403/403/403 401/401/401
f 400/400/400 401/401/401 404/404/404
f 400/400/400 404/404/404 405/405/405
f 401/401/401 403/403/403 406/406/406
f 403/403/403 407/407/407 406/406/406
f 405/405/405 404/404/404 408/408/408
f 405/405/405 408/408/408 409/409/409
f 404/404/404 401/401/401 410/410/410
f 401/401/401 406/406/406 410/410/410
f 408/408/408 404/404/404 410/410/410
f 406/406/406 411/411/411 410/410/410
f 406/406/406 407/407/407 411/411/411
f 412/412/412 408/408/408 410/410/410
f 409/409/409 408/408/408 412/412/412
f 409/409/409 412/412/412 413/413/413
f 407/407/407 414/414/414 411/411/411
f 411/411/411 414/414/414 410/410/410
f 415/415/415 414/414/414 407/407/407
f 415/415/415 416/416/416 414/414/414
f 413/413/413 412/412/412 417/417/417
f 417/417/417 412/412/412 410/410/410
f 413/413/413 417/417/417 418/418/418
f 414/414/414 416/416/416 419/419/419
f 414/414/414 419/419/419 410/410/410
f 416/416/416 420/420/420 419/419/419
f 418/418/418 417/417/417 421/421/421
f 421/421/421 417/417/417 410/410/410
f 418/418/418 421/421/421 422/422/422
f 422/422/422 421/421/421 423/423/423
f 422/422/422 423/423/423 420/420/420
f 423/423/423 421/421/421 410/410/410
f 419/419/419 424/424/424 410/410/410
f 419/419/419 420/420/420 424/424/424
f 424/424/424 423/423/423 410/410/410
f 420/420/420 423/423/423 424/424/424
f 427/427/427 426/426/426 425/425/425
f 425/425/425 426/426/426 428/428/428
f 429/429/429 426/426/426 427/427/427
f 428/428/428 426/426/426 430/430/430
f 431/431/431 426/426/426 429/429/429
f 430/430/430 426/426/426 431/431/431
f 434/434/434 433/433/433 432/432/432
f 433/433/433 435/435/435 432/432/432
f 436/436/436 433/433/433 434/434/434
f 437/437/437 436/436/436 434/434/434
f 438/438/438 435/435/435 433/433/433
f 438/438/438 439/439/439 435/435/435
f 440/440/440 436/436/436 437/437/437
f 441/441/441 440/440/440 437/437/437
f 442/442/442 440/440/440 441/441/441
f 443/443/443 442/442/442 441/441/441
f 444/444/444 442/442/442 443/443/443
f 445/445/445 444/444/444 443/443/443
f 433/433/433 436/436/436 446/446/446
f 436/436/436 440/440/440 447/447/447
f 436/436/436 447/447/447 446/446/446
f 440/440/440 442/442/442 448/448/448
f 440/440/440 448/448/448 447/447/447
f 433/433/433 446/446/446 449/449/449
f 438/438/438 433/433/433 449/449/449
f 450/450/450 446/446/446 447/447/447
f 450/450/450 447/447/447 448/448/448
f 450/450/450 449/449/449 446/446/446
f 450/450/450 448/448/448 451/451/451
f 442/442/442 451/451/451 448/448/448
f 442/442/442 444/444/444 451/451/451
f 450/450/450 452/452/452 449/449/449
f 438/438/438 449/449/449 452/452/452
f 444/444/444 453/453/453 451/451/451
f 450/450/450 451/451/451 453/453/453
f 454/454/454 444/444/444 445/445/445
f 444/444/444 454/454/454 453/453/453
f 455/455/455 438/438/438 452/452/452
f 455/455/455 439/439/439 438/438/438
f 454/454/454 445/445/445 456/456/456
f 456/456/456 445/445/445 457/457/457
f 454/454/454 458/458/458 453/453/453
f 450/450/450 453/453/453 458/458/458
f 454/454/454 456/456/456 458/458/458
f 455/455/455 452/452/452 459/459/459
f 450/450/450 459/459/459 452/452/452
f 455/455/455 460/460/460 439/439/439
f 460/460/460 455/455/455 459/459/459
f 439/439/439 460/460/460 461/461/461
f 460/460/460 462/462/462 461/461/461
f 456/456/456 457/457/457 463/463/463
f 463/463/463 457/457/457 464/464/464
f 456/456/456 465/465/465 458/458/458
f 450/450/450 458/458/458 465/465/465
f 456/456/456 463/463/463 465/465/465
f 466/466/466 464/464/464 462/462/462
f 466/466/466 462/462/462 460/460/460
f 463/463/463 464/464/464 466/466/466
f 460/460/460 459/459/459 467/467/467
f 450/450/450 467/467/467 459/459/459
f 466/466/466 460/460/460 467/467/467
f 450/450/450 465/465/465 468/468/468
f 463/463/463 468/468/468 465/465/465
f 450/450/450 468/468/468 467/467/467
f 466/466/466 467/467/467 468/468/468
f 463/463/463 466/466/466 468/468/468
g Apple_1
f 471/471/471 470/470/470 469/469/469
f 469/469/469 472/472/472 471/471/471
f 473/473/473 471/471/471 472/472/472
f 472/472/472 469/469/469 474/474/474
f 477/477/477 476/476/476 475/475/475
f 475/475/475 478/478/478 477/477/477
f 479/479/479 477/477/477 478/478/478
f 478/478/478 475/475/475 480/480/480
f 483/483/483 482/482/482 481/481/481
f 481/481/481 484/484/484 483/483/483
f 485/485/485 483/483/483 484/484/484
f 484/484/484 481/481/481 486/486/486
f 489/489/489 488/488/488 487/487/487
f 487/487/487 490/490/490 489/489/489
f 491/491/491 489/489/489 490/490/490
f 490/490/490 487/487/487 492/492/492
f 495/495/495 494/494/494 493/493/493
f 493/493/493 496/496/496 495/495/495
f 497/497/497 495/495/495 496/496/496
f 496/496/496 493/493/493 498/498/498
f 501/501/501 500/500/500 499/499/499
f 499/499/499 502/502/502 501/501/501
f 503/503/503 501/501/501 502/502/502
f 502/502/502 499/499/499 504/504/504
f 507/507/507 506/506/506 505/505/505
f 505/505/505 508/508/508 507/507/507
f 509/509/509 507/507/507 508/508/508
f 508/508/508 505/505/505 510/510/510
f 513/513/513 512/512/512 511/511/511
f 511/511/511 514/514/514 513/513/513
f 515/515/515 513/513/513 514/514/514
f 514/514/514 511/511/511 516/516/516
f 519/519/519 518/518/518 517/517/517
f 517/517/517 520/520/520 519/519/519
f 521/521/521 519/519/519 520/520/520
f 520/520/520 517/517/517 522/522/522
f 525/525/525 524/524/524 523/523/523
f 523/523/523 526/526/526 525/525/525
f 527/527/527 525/525/525 526/526/526
f 526/526/526 523/523/523 528/528/528
f 531/531/531 530/530/530 529/529/529
f 529/529/529 532/532/532 531/531/531
f 533/533/533 531/531/531 532/532/532
f 532/532/532 529/529/529 534/534/534
f 537/537/537 536/536/536 535/535/535
f 535/535/535 538/538/538 537/537/537
f 539/539/539 537/537/537 538/538/538
f 538/538/538 535/535/535 540/540/540
f 543/543/543 542/542/542 541/541/541
f 541/541/541 544/544/544 543/543/543
f 545/545/545 543/543/543 544/544/544
f 544/544/544 541/541/541 546/546/546
f 549/549/549 548/548/548 547/547/547
f 547/547/547 550/550/550 549/549/549
f 551/551/551 549/549/549 550/550/550
f 550/550/550 547/547/547 552/552/552
f 555/555/555 554/554/554 553/553/553
f 553/553/553 556/556/556 555/555/555
f 557/557/557 555/555/555 556/556/556
f 556/556/556 553/553/553 558/558/558
f 561/561/561 560/560/560 559/559/559
f 559/559/559 562/562/562 561/561/561
f 563/563/563 561/561/561 562/562/562
f 562/562/562 559/559/559 564/564/564
f 567/567/567 566/566/566 565/565/565
f 565/565/565 568/568/568 567/567/567
f 569/569/569 567/567/567 568/568/568
f 568/568/568 565/565/565 570/570/570
f 573/573/573 572/572/572 571/571/571
f 571/571/571 574/574/574 573/573/573
f 575/575/575 573/573/573 574/574/574
f 574/574/574 571/571/571 576/576/576
f 579/579/579 578/578/578 577/577/577
f 577/577/577 580/580/580 579/579/579
f 581/581/581 579/579/579 580/580/580
f 580/580/580 577/577/577 582/582/582
f 585/585/585 584/584/584 583/583/583
f 583/583/583 586/586/586 585/585/585
f 587/587/587 585/585/585 586/586/586
f 586/586/586 583/583/583 588/588/588
f 591/591/591 590/590/590 589/589/589
f 589/589/589 592/592/592 591/591/591
f 593/593/593 591/591/591 592/592/592
f 592/592/592 589/589/589 594/594/594
f 597/597/597 596/596/596 595/595/595
f 595/595/595 598/598/598 597/597/597
f 599/599/599 597/597/597 598/598/598
f 598/598/598 595/595/595 600/600/600
f 603/603/603 602/602/602 601/601/601
f 601/601/601 604/604/604 603/603/603
f 605/605/605 603/603/603 604/604/604
f 604/604/604 601/601/601 606/606/606
f 609/609/609 608/608/608 607/607/607
f 607/607/607 610/610/610 609/609/609
f 611/611/611 609/609/609 610/610/610
f 610/610/610 607/607/607 612/612/612
f 615/615/615 614/614/614 613/613/613
f 613/613/613 616/616/616 615/615/615
f 617/617/617 615/615/615 616/616/616
f 616/616/616 613/613/613 618/618/618
f 621/621/621 620/620/620 619/619/619
f 619/619/619 622/622/622 621/621/621
f 623/623/623 621/621/621 622/622/622
f 622/622/622 619/619/619 624/624/624
f 627/627/627 626/626/626 625/625/625
f 625/625/625 628/628/628 627/627/627
f 629/629/629 627/627/627 628/628/628
f 628/628/628 625/625/625 630/630/630
f 633/633/633 632/632/632 631/631/631
f 631/631/631 634/634/634 633/633/633
f 635/635/635 633/633/633 634/634/634
f 634/634/634 631/631/631 636/636/636
f 639/639/639 638/638/638 637/637/637
f 637/637/637 640/640/640 639/639/639
f 641/641/641 639/639/639 640/640/640
f 640/640/640 637/637/637 642/642/642
f 645/645/645 644/644/644 643/643/643
f 643/643/643 646/646/646 645/645/645
f 647/647/647 645/645/645 646/646/646
f 646/646/646 643/643/643 648/648/648
f 651/651/651 650/650/650 649/649/649
f 649/649/649 652/652/652 651/651/651
f 653/653/653 651/651/651 652/652/652
f 652/652/652 649/649/649 654/654/654
f 657/657/657 656/656/656 655/655/655
f 655/655/655 658/658/658 657/657/657
f 659/659/659 657/657/657 658/658/658
f 658/658/658 655/655/655 660/660/660
f 663/663/663 662/662/662 661/661/661
f 661/661/661 664/664/664 663/663/663
f 665/665/665 663/663/663 664/664/664
f 664/664/664 661/661/661 666/666/666
f 669/669/669 668/668/668 667/667/667
f 667/667/667 670/670/670 669/669/669
f 671/671/671 669/669/669 670/670/670
f 670/670/670 667/667/667 672/672/672
f 675/675/675 674/674/674 673/673/673
f 673/673/673 676/676/676 675/675/675
f 677/677/677 675/675/675 676/676/676
f 676/676/676 673/673/673 678/678/678
f 681/681/681 680/680/680 679/679/679
f 679/679/679 682/682/682 681/681/681
f 683/683/683 681/681/681 682/682/682
f 682/682/682 679/679/679 684/684/684
f 687/687/687 686/686/686 685/685/685
f 685/685/685 688/688/688 687/687/687
f 689/689/689 687/687/687 688/688/688
f 688/688/688 685/685/685 690/690/690
f 693/693/693 692/692/692 691/691/691
f 691/691/691 694/694/694 693/693/693
f 695/695/695 693/693/693 694/694/694
f 694/694/694 691/691/691 696/696/696
f 699/699/699 698/698/698 697/697/697
f 697/697/697 700/700/700 699/699/699
f 701/701/701 699/699/699 700/700/700
f 700/700/700 697/697/697 702/702/702
f 705/705/705 704/704/704 703/703/703
f 703/703/703 706/706/706 705/705/705
f 707/707/707 705/705/705 706/706/706
f 706/706/706 703/703/703 708/708/708
