%YAML 1.1
%TAG !u! tag:unity3d.com,2011:
--- !u!21 &2100000
Material:
  serializedVersion: 6
  m_ObjectHideFlags: 0
  m_CorrespondingSourceObject: {fileID: 0}
  m_PrefabInstance: {fileID: 0}
  m_PrefabAsset: {fileID: 0}
  m_Name: RollProgressed
  m_Shader: {fileID: 4800000, guid: 523d159754d28104cab5619088c0a6d5, type: 3}
  m_ShaderKeywords: 
  m_LightmapFlags: 4
  m_EnableInstancingVariants: 0
  m_DoubleSidedGI: 0
  m_CustomRenderQueue: -1
  stringTagMap: {}
  disabledShaderPasses: []
  m_SavedProperties:
    serializedVersion: 3
    m_TexEnvs:
    - Texture2D_72426835:
        m_Texture: {fileID: 2800000, guid: a1a3beee4accf7547a8b926bd0a38514, type: 3}
        m_Scale: {x: 1, y: 1}
        m_Offset: {x: 0, y: 0}
    - Texture2D_FA8A7797:
        m_Texture: {fileID: 0}
        m_Scale: {x: 1, y: 1}
        m_Offset: {x: 0, y: 0}
    - _BaseMap:
        m_Texture: {fileID: 0}
        m_Scale: {x: 1, y: 1}
        m_Offset: {x: 0, y: 0}
    - _BlendTex:
        m_Texture: {fileID: 2800000, guid: a1a3beee4accf7547a8b926bd0a38514, type: 3}
        m_Scale: {x: 1, y: 1}
        m_Offset: {x: 0, y: 0}
    - _BumpMap:
        m_Texture: {fileID: 0}
        m_Scale: {x: 1, y: 1}
        m_Offset: {x: 0, y: 0}
    - _EmissionMap:
        m_Texture: {fileID: 0}
        m_Scale: {x: 1, y: 1}
        m_Offset: {x: 0, y: 0}
    - _MainTex:
        m_Texture: {fileID: 0}
        m_Scale: {x: 1, y: 1}
        m_Offset: {x: 0, y: 0}
    - _MetallicGlossMap:
        m_Texture: {fileID: 0}
        m_Scale: {x: 1, y: 1}
        m_Offset: {x: 0, y: 0}
    - _OcclusionMap:
        m_Texture: {fileID: 0}
        m_Scale: {x: 1, y: 1}
        m_Offset: {x: 0, y: 0}
    - _SpecGlossMap:
        m_Texture: {fileID: 0}
        m_Scale: {x: 1, y: 1}
        m_Offset: {x: 0, y: 0}
    - _Texture:
        m_Texture: {fileID: 0}
        m_Scale: {x: 1, y: 1}
        m_Offset: {x: 0, y: 0}
    m_Floats:
    - Vector1_7F78A952: 0.0466
    - Vector1_CFC36DAD: 1
    - _Alpha: 1
    - _AlphaClip: 0
    - _Amplitude: 0
    - _AnglePerUnit: 0.2
    - _Blend: 0
    - _BumpScale: 1
    - _Cull: 2
    - _Cutoff: 0.5
    - _Dist: 126.56
    - _DstBlend: 0
    - _EdgeTessellation: 5
    - _EnvironmentReflections: 1
    - _Frequency: 0
    - _GlossMapScale: 0
    - _Glossiness: 0
    - _GlossyReflections: 0
    - _HideWireframe: 0
    - _InternalTessellation: 5
    - _Metallic: 0
    - _OcclusionStrength: 1
    - _OffsetSin: 0
    - _Pitch: 0.02
    - _PointX: 0
    - _PointY: 0
    - _QueueOffset: 0
    - _Radius: 0
    - _ReceiveShadows: 1
    - _SinOffset: 0
    - _Smoothness: 0.5
    - _SmoothnessTextureChannel: 0
    - _SpecularHighlights: 1
    - _SrcBlend: 1
    - _StartAngle: 60
    - _Surface: 0
    - _Tess: 4
    - _UnrolledAngle: 1.5
    - _WorkflowMode: 1
    - _ZWrite: 1
    m_Colors:
    - Vector2_6A93A1CF: {r: 1, g: 1, b: 0, a: 0}
    - _BaseColor: {r: 1, g: 1, b: 1, a: 1}
    - _Color: {r: 1, g: 0.6650944, b: 0.6650944, a: 1}
    - _EmissionColor: {r: 0, g: 0, b: 0, a: 1}
    - _QOffset: {r: 0, g: 0, b: 0, a: 0}
    - _RollDir: {r: 0, g: 1, b: 0, a: 0}
    - _SpecColor: {r: 0.2, g: 0.2, b: 0.2, a: 1}
    - _UpDir: {r: 1, g: 0, b: 0, a: 0}
--- !u!114 &6352555723556072263
MonoBehaviour:
  m_ObjectHideFlags: 11
  m_CorrespondingSourceObject: {fileID: 0}
  m_PrefabInstance: {fileID: 0}
  m_PrefabAsset: {fileID: 0}
  m_GameObject: {fileID: 0}
  m_Enabled: 1
  m_EditorHideFlags: 0
  m_Script: {fileID: 11500000, guid: d0353a89b1f911e48b9e16bdc9f2e058, type: 3}
  m_Name: 
  m_EditorClassIdentifier: 
  version: 2
