[
  {
    "Id": 0,
    "slice_0": 0,
    "slice_1": 0,
    "slice_2": 0,
    "slice_3": 0
  },
  {
    "Id": 1,
    "slice_0": 1,
    "slice_1": 2,
    "slice_2": 0,
    "slice_3": ""
  },
  {
    "Id": 2,
    "slice_0": 1,
    "slice_1": 3,
    "slice_2": "",
    "slice_3": ""
  }
]